{
  "schema_version": "1.0",
  "generated_at": "2026-06-11T00:37:02.159Z",
  "data_mode": "live",
  "page": 30,
  "page_size": 30,
  "record_count": 873,
  "item_count": 3,
  "total_count": 873,
  "total_pages": 30,
  "items": [
    {
      "vessel_id": "CALL-060181",
      "master_vessel_id": "MASTER-CALLSIGN-060181",
      "port_call_id": "MASTER-PORTCALL-MASTER-CALLSIGN-060181-020-020-2026-005-060181",
      "vessel_name": "덕양5001호",
      "imo": "",
      "mmsi": "",
      "call_sign": "060181",
      "identity_source": "",
      "identity_confidence": 91,
      "identity_match_type": "call_sign_exact",
      "port_code": "020",
      "port_name": "부산",
      "port_display_name": "부산",
      "normalized_port": {
        "port_code": "020",
        "port_name": "부산",
        "display_name": "부산",
        "raw_port": "Busan",
        "raw_aliases": [
          "Busan",
          "부산항",
          "부산"
        ]
      },
      "operator_display": "",
      "operator_source": "",
      "operator_confidence": 0,
      "biofoulingRiskScore": 35,
      "hullGrowthIndex": 38,
      "cleaningOpportunityScore": 32,
      "anchorageHours": 0,
      "portStayHours": 0,
      "sstCelsius": 24.6,
      "sstAnomalyCelsius": 0.8,
      "salinityPsu": 33.8,
      "ocean_risk_score": 14,
      "ocean_risk_label_ko": "낮음",
      "marine_heatwave_level": "HIGH",
      "marine_heatwave_label_ko": "높음",
      "fouling_accelerator_pct": 38,
      "ocean_source": "FALLBACK",
      "ocean_updated_at": "2026-06-11T00:37:02.159Z",
      "tropicalExposureDays": 0,
      "slowSteamingHours": 0,
      "riskReasons": [
        "SST 24.6도",
        "평년 대비 +2.1도",
        "해양열파 높음",
        "MASTER_DB_MATCH_FOUND",
        "AGENT_IDENTIFIED",
        "CONTACT_PATH_AVAILABLE",
        "Low-speed or waiting condition",
        "GT_BELOW_5000_NOT_COMMERCIAL_TARGET",
        "KNOWN_COMMERCIAL_SEGMENT",
        "수온 22도 이상"
      ],
      "recommendedAction": "낮은 우선순위",
      "confidence": "medium",
      "vessel_display": {
        "vessel_name": "덕양5001호",
        "imo": "-",
        "mmsi": "-",
        "call_sign": "060181",
        "flag": "-",
        "vessel_type": "일반화물운반용 부선",
        "gt": 770,
        "dwt": null,
        "tonnage_summary": {
          "gt": 770,
          "dwt": null,
          "size_class": "BELOW_COMMERCIAL_MIN",
          "gt_source": "vessel_display.gt",
          "dwt_source": "missing",
          "tonnage_confidence": 65
        },
        "target_size_qualified": null,
        "target_size_reason": "",
        "operator": "덕성기업",
        "operator_display": "덕성기업",
        "operator_source": "vessel_display",
        "operator_confidence": 0,
        "company": "덕성기업",
        "owner": "-",
        "manager": "-",
        "technical_manager": "-",
        "agent": "덕성기업",
        "current_port": "부산",
        "raw_current_port": "부산",
        "current_port_korean": "부산",
        "normalized_port": {
          "port_code": "020",
          "port_name": "부산",
          "display_name": "부산",
          "raw_port": "Busan",
          "raw_aliases": [
            "Busan",
            "부산항",
            "부산"
          ]
        },
        "port_display_name": "부산",
        "berth": "청학안벽",
        "anchorage": "-",
        "eta": "-",
        "etb": "-",
        "ata": "2026-06-16 00:00:00+09:00",
        "atb": "-",
        "etd": "-",
        "atd": "2026-06-16 00:00:00+09:00",
        "stay_days": null,
        "stay_hours": 0,
        "waiting_hours": 0,
        "port_stay_hours": 0,
        "congestion_score": 0,
        "waiting_score": null,
        "last_seen_at": "2026-06-11T00:33:11.818Z",
        "data_source": "Merged Port Operation port call",
        "identity_source": "-",
        "identity_confidence": 91,
        "identity_match_type": "call_sign_exact",
        "identity_conflict": null,
        "confidence_score": 66,
        "opportunity_score": 9,
        "risk_score": 45,
        "biofouling_score": 35,
        "compliance_score": null,
        "commercial_size_qualified": false,
        "biofouling_compliance_exposure": {
          "exposed": false,
          "jurisdiction": "",
          "basis": "",
          "threshold_type": "",
          "confidence": 0,
          "notes": "관할 목적지/항로 신호가 확인되지 않았습니다."
        },
        "compliance_exposure": {
          "exposed": false,
          "jurisdiction": "",
          "basis": "",
          "threshold_type": "",
          "confidence": 0,
          "notes": "관할 목적지/항로 신호가 확인되지 않았습니다."
        },
        "biofoulingRiskScore": 35,
        "hullGrowthIndex": 38,
        "cleaningOpportunityScore": 32,
        "anchorageHours": 0,
        "portStayHours": 0,
        "sstCelsius": 24.6,
        "sstAnomalyCelsius": 0.8,
        "salinityPsu": 33.8,
        "ocean_risk_score": 14,
        "ocean_risk_label_ko": "낮음",
        "marine_heatwave_level": "HIGH",
        "marine_heatwave_label_ko": "높음",
        "fouling_accelerator_pct": 38,
        "ocean_source": "FALLBACK",
        "ocean_updated_at": "2026-06-11T00:37:02.159Z",
        "tropicalExposureDays": 0,
        "slowSteamingHours": 0,
        "riskReasons": [
          "SST 24.6도",
          "평년 대비 +2.1도",
          "해양열파 높음",
          "MASTER_DB_MATCH_FOUND",
          "AGENT_IDENTIFIED",
          "CONTACT_PATH_AVAILABLE",
          "Low-speed or waiting condition",
          "GT_BELOW_5000_NOT_COMMERCIAL_TARGET",
          "KNOWN_COMMERCIAL_SEGMENT",
          "수온 22도 이상"
        ],
        "recommendedAction": "낮은 우선순위",
        "confidence": "medium",
        "contact_readiness_score": 35,
        "priority_label": "LOW",
        "priority_label_ko": "모니터링",
        "target_categories": [],
        "category_label": "",
        "korean_label": "",
        "reason_summary": "Busan 청학안벽에서 현재 항만 체류 중인 unknown으로, 출항도선 신호가 강하지 않습니다 · 연락 경로 단서가 있습니다.",
        "recommended_action": "낮은 우선순위",
        "data_sources": [
          "Merged Port Operation port call",
          "merged_port_operation",
          "real_public_api_snapshot",
          "port_operation",
          "gt"
        ],
        "enrichment_sources": [],
        "port_code": "020",
        "port_name": "부산",
        "display_name": "부산"
      },
      "display_name": "부산"
    },
    {
      "vessel_id": "CALL-BZUY5",
      "master_vessel_id": "MASTER-CALLSIGN-BZUY5",
      "port_call_id": "MASTER-PORTCALL-MASTER-CALLSIGN-BZUY5-020-020-2026-001-BZUY5",
      "vessel_name": "FUYUANYU 8675",
      "imo": "",
      "mmsi": "",
      "call_sign": "BZUY5",
      "identity_source": "",
      "identity_confidence": 94,
      "identity_match_type": "call_sign_exact",
      "port_code": "020",
      "port_name": "부산",
      "port_display_name": "부산",
      "normalized_port": {
        "port_code": "020",
        "port_name": "부산",
        "display_name": "부산",
        "raw_port": "Busan",
        "raw_aliases": [
          "Busan",
          "OCEAN DISTRICT",
          "부산항",
          "부산"
        ]
      },
      "operator_display": "",
      "operator_source": "",
      "operator_confidence": 0,
      "biofoulingRiskScore": 35,
      "hullGrowthIndex": 38,
      "cleaningOpportunityScore": 34,
      "anchorageHours": 3,
      "portStayHours": 3,
      "sstCelsius": 24.6,
      "sstAnomalyCelsius": 0.8,
      "salinityPsu": 33.8,
      "ocean_risk_score": 15,
      "ocean_risk_label_ko": "낮음",
      "marine_heatwave_level": "HIGH",
      "marine_heatwave_label_ko": "높음",
      "fouling_accelerator_pct": 38,
      "ocean_source": "FALLBACK",
      "ocean_updated_at": "2026-06-11T00:37:02.159Z",
      "tropicalExposureDays": 0,
      "slowSteamingHours": 0,
      "riskReasons": [
        "SST 24.6도",
        "평년 대비 +2.1도",
        "해양열파 높음",
        "MASTER_DB_MATCH_FOUND",
        "LOW_SPEED_CONGESTION_PATTERN",
        "ANCHORAGE_CLASSIFIED",
        "AGENT_IDENTIFIED",
        "CONTACT_PATH_AVAILABLE",
        "Low-speed or waiting condition",
        "NON_COMMERCIAL_VESSEL_TYPE_EXCLUDED"
      ],
      "recommendedAction": "낮은 우선순위",
      "confidence": "high",
      "vessel_display": {
        "vessel_name": "FUYUANYU 8675",
        "imo": "-",
        "mmsi": "-",
        "call_sign": "BZUY5",
        "flag": "-",
        "vessel_type": "원양 어선",
        "gt": 1101,
        "dwt": null,
        "tonnage_summary": {
          "gt": 1101,
          "dwt": null,
          "size_class": "BELOW_COMMERCIAL_MIN",
          "gt_source": "vessel_display.gt",
          "dwt_source": "missing",
          "tonnage_confidence": 65
        },
        "target_size_qualified": null,
        "target_size_reason": "",
        "operator": "(주)피스코마린",
        "operator_display": "(주)피스코마린",
        "operator_source": "vessel_display",
        "operator_confidence": 0,
        "company": "(주)피스코마린",
        "owner": "-",
        "manager": "-",
        "technical_manager": "-",
        "agent": "(주)피스코마린",
        "current_port": "부산",
        "raw_current_port": "부산",
        "current_port_korean": "부산",
        "normalized_port": {
          "port_code": "020",
          "port_name": "부산",
          "display_name": "부산",
          "raw_port": "Busan",
          "raw_aliases": [
            "Busan",
            "OCEAN DISTRICT",
            "부산항",
            "부산"
          ]
        },
        "port_display_name": "부산",
        "berth": "남외항 N-4박지",
        "anchorage": "남외항 N-4박지",
        "eta": "2026-06-14T03:00:00.000Z",
        "etb": "-",
        "ata": "2026-06-11 09:00:00+09:00",
        "atb": "-",
        "etd": "2026-06-11 12:00:00",
        "atd": "2026-06-11 12:00:00+09:00",
        "stay_days": 0.1,
        "stay_hours": 3,
        "waiting_hours": 3,
        "port_stay_hours": 3,
        "congestion_score": 0,
        "waiting_score": null,
        "last_seen_at": "2026-06-11T00:33:11.818Z",
        "data_source": "Merged Port Operation port call",
        "identity_source": "-",
        "identity_confidence": 94,
        "identity_match_type": "call_sign_exact",
        "identity_conflict": null,
        "confidence_score": 78,
        "opportunity_score": 8,
        "risk_score": 45,
        "biofouling_score": 35,
        "compliance_score": null,
        "commercial_size_qualified": false,
        "biofouling_compliance_exposure": {
          "exposed": false,
          "jurisdiction": "",
          "basis": "",
          "threshold_type": "",
          "confidence": 0,
          "notes": "관할 목적지/항로 신호가 확인되지 않았습니다."
        },
        "compliance_exposure": {
          "exposed": false,
          "jurisdiction": "",
          "basis": "",
          "threshold_type": "",
          "confidence": 0,
          "notes": "관할 목적지/항로 신호가 확인되지 않았습니다."
        },
        "biofoulingRiskScore": 35,
        "hullGrowthIndex": 38,
        "cleaningOpportunityScore": 34,
        "anchorageHours": 3,
        "portStayHours": 3,
        "sstCelsius": 24.6,
        "sstAnomalyCelsius": 0.8,
        "salinityPsu": 33.8,
        "ocean_risk_score": 15,
        "ocean_risk_label_ko": "낮음",
        "marine_heatwave_level": "HIGH",
        "marine_heatwave_label_ko": "높음",
        "fouling_accelerator_pct": 38,
        "ocean_source": "FALLBACK",
        "ocean_updated_at": "2026-06-11T00:37:02.159Z",
        "tropicalExposureDays": 0,
        "slowSteamingHours": 0,
        "riskReasons": [
          "SST 24.6도",
          "평년 대비 +2.1도",
          "해양열파 높음",
          "MASTER_DB_MATCH_FOUND",
          "LOW_SPEED_CONGESTION_PATTERN",
          "ANCHORAGE_CLASSIFIED",
          "AGENT_IDENTIFIED",
          "CONTACT_PATH_AVAILABLE",
          "Low-speed or waiting condition",
          "NON_COMMERCIAL_VESSEL_TYPE_EXCLUDED"
        ],
        "recommendedAction": "낮은 우선순위",
        "confidence": "high",
        "contact_readiness_score": 35,
        "priority_label": "LOW",
        "priority_label_ko": "모니터링",
        "target_categories": [],
        "category_label": "",
        "korean_label": "",
        "reason_summary": "Busan 남외항 N-4박지에서 묘박/대기 0.1일째인 excluded_small_craft으로, 출항 전 약 2시간의 작업 가능 시간이 보입니다 · 출항도선 신호가 강하지 않습니다 · 연락 경로 단서가 있습니다.",
        "recommended_action": "낮은 우선순위",
        "data_sources": [
          "Merged Port Operation port call",
          "merged_port_operation",
          "real_public_api_snapshot",
          "port_operation",
          "gt"
        ],
        "enrichment_sources": [],
        "port_code": "020",
        "port_name": "부산",
        "display_name": "부산"
      },
      "display_name": "부산"
    },
    {
      "vessel_id": "CALL-220011",
      "master_vessel_id": "MASTER-CALLSIGN-220011",
      "port_call_id": "MASTER-PORTCALL-MASTER-CALLSIGN-220011-020-020-2026-015-220011",
      "vessel_name": "덕양 250",
      "imo": "",
      "mmsi": "",
      "call_sign": "220011",
      "identity_source": "",
      "identity_confidence": 91,
      "identity_match_type": "call_sign_exact",
      "port_code": "020",
      "port_name": "부산",
      "port_display_name": "부산",
      "normalized_port": {
        "port_code": "020",
        "port_name": "부산",
        "display_name": "부산",
        "raw_port": "Busan",
        "raw_aliases": [
          "Busan",
          "부산항",
          "부산"
        ]
      },
      "operator_display": "",
      "operator_source": "",
      "operator_confidence": 0,
      "biofoulingRiskScore": 35,
      "hullGrowthIndex": 38,
      "cleaningOpportunityScore": 32,
      "anchorageHours": 0,
      "portStayHours": 0,
      "sstCelsius": 24.6,
      "sstAnomalyCelsius": 0.8,
      "salinityPsu": 33.8,
      "ocean_risk_score": 14,
      "ocean_risk_label_ko": "낮음",
      "marine_heatwave_level": "HIGH",
      "marine_heatwave_label_ko": "높음",
      "fouling_accelerator_pct": 38,
      "ocean_source": "FALLBACK",
      "ocean_updated_at": "2026-06-11T00:37:02.159Z",
      "tropicalExposureDays": 0,
      "slowSteamingHours": 0,
      "riskReasons": [
        "SST 24.6도",
        "평년 대비 +2.1도",
        "해양열파 높음",
        "MASTER_DB_MATCH_FOUND",
        "AGENT_IDENTIFIED",
        "CONTACT_PATH_AVAILABLE",
        "Low-speed or waiting condition",
        "GT_BELOW_5000_NOT_COMMERCIAL_TARGET",
        "KNOWN_COMMERCIAL_SEGMENT",
        "수온 22도 이상"
      ],
      "recommendedAction": "낮은 우선순위",
      "confidence": "medium",
      "vessel_display": {
        "vessel_name": "덕양 250",
        "imo": "-",
        "mmsi": "-",
        "call_sign": "220011",
        "flag": "-",
        "vessel_type": "기타 부선",
        "gt": 821,
        "dwt": null,
        "tonnage_summary": {
          "gt": 821,
          "dwt": null,
          "size_class": "BELOW_COMMERCIAL_MIN",
          "gt_source": "vessel_display.gt",
          "dwt_source": "missing",
          "tonnage_confidence": 65
        },
        "target_size_qualified": null,
        "target_size_reason": "",
        "operator": "덕성기업",
        "operator_display": "덕성기업",
        "operator_source": "vessel_display",
        "operator_confidence": 0,
        "company": "덕성기업",
        "owner": "-",
        "manager": "-",
        "technical_manager": "-",
        "agent": "덕성기업",
        "current_port": "부산",
        "raw_current_port": "부산",
        "current_port_korean": "부산",
        "normalized_port": {
          "port_code": "020",
          "port_name": "부산",
          "display_name": "부산",
          "raw_port": "Busan",
          "raw_aliases": [
            "Busan",
            "부산항",
            "부산"
          ]
        },
        "port_display_name": "부산",
        "berth": "청학안벽",
        "anchorage": "-",
        "eta": "-",
        "etb": "-",
        "ata": "2026-06-12 00:00:00+09:00",
        "atb": "-",
        "etd": "-",
        "atd": "2026-06-12 00:00:00+09:00",
        "stay_days": null,
        "stay_hours": 0,
        "waiting_hours": 0,
        "port_stay_hours": 0,
        "congestion_score": 0,
        "waiting_score": null,
        "last_seen_at": "2026-06-11T00:33:11.818Z",
        "data_source": "Merged Port Operation port call",
        "identity_source": "-",
        "identity_confidence": 91,
        "identity_match_type": "call_sign_exact",
        "identity_conflict": null,
        "confidence_score": 66,
        "opportunity_score": 7,
        "risk_score": 45,
        "biofouling_score": 35,
        "compliance_score": null,
        "commercial_size_qualified": false,
        "biofouling_compliance_exposure": {
          "exposed": false,
          "jurisdiction": "",
          "basis": "",
          "threshold_type": "",
          "confidence": 0,
          "notes": "관할 목적지/항로 신호가 확인되지 않았습니다."
        },
        "compliance_exposure": {
          "exposed": false,
          "jurisdiction": "",
          "basis": "",
          "threshold_type": "",
          "confidence": 0,
          "notes": "관할 목적지/항로 신호가 확인되지 않았습니다."
        },
        "biofoulingRiskScore": 35,
        "hullGrowthIndex": 38,
        "cleaningOpportunityScore": 32,
        "anchorageHours": 0,
        "portStayHours": 0,
        "sstCelsius": 24.6,
        "sstAnomalyCelsius": 0.8,
        "salinityPsu": 33.8,
        "ocean_risk_score": 14,
        "ocean_risk_label_ko": "낮음",
        "marine_heatwave_level": "HIGH",
        "marine_heatwave_label_ko": "높음",
        "fouling_accelerator_pct": 38,
        "ocean_source": "FALLBACK",
        "ocean_updated_at": "2026-06-11T00:37:02.159Z",
        "tropicalExposureDays": 0,
        "slowSteamingHours": 0,
        "riskReasons": [
          "SST 24.6도",
          "평년 대비 +2.1도",
          "해양열파 높음",
          "MASTER_DB_MATCH_FOUND",
          "AGENT_IDENTIFIED",
          "CONTACT_PATH_AVAILABLE",
          "Low-speed or waiting condition",
          "GT_BELOW_5000_NOT_COMMERCIAL_TARGET",
          "KNOWN_COMMERCIAL_SEGMENT",
          "수온 22도 이상"
        ],
        "recommendedAction": "낮은 우선순위",
        "confidence": "medium",
        "contact_readiness_score": 35,
        "priority_label": "LOW",
        "priority_label_ko": "모니터링",
        "target_categories": [],
        "category_label": "",
        "korean_label": "",
        "reason_summary": "Busan 청학안벽에서 현재 항만 체류 중인 unknown으로, 출항도선 신호가 강하지 않습니다 · 연락 경로 단서가 있습니다.",
        "recommended_action": "낮은 우선순위",
        "data_sources": [
          "Merged Port Operation port call",
          "merged_port_operation",
          "real_public_api_snapshot",
          "port_operation",
          "gt"
        ],
        "enrichment_sources": [],
        "port_code": "020",
        "port_name": "부산",
        "display_name": "부산"
      },
      "display_name": "부산"
    }
  ]
}
