{
  "schema_version": "1.0",
  "generated_at": "2026-06-11T09:44:10.845Z",
  "data_mode": "live",
  "page": 23,
  "page_size": 30,
  "record_count": 664,
  "item_count": 4,
  "total_count": 664,
  "total_pages": 23,
  "items": [
    {
      "vessel_id": "CALL-3FAF5",
      "master_vessel_id": "MASTER-CALLSIGN-3FAF5",
      "port_call_id": "MASTER-PORTCALL-MASTER-CALLSIGN-3FAF5-031-031-2026-001-3FAF5",
      "vessel_name": "LADY ROSEBUD",
      "imo": "",
      "mmsi": "",
      "call_sign": "3FAF5",
      "identity_source": "",
      "identity_confidence": 91,
      "identity_match_type": "call_sign_exact",
      "port_code": "031",
      "port_name": "평택·당진",
      "port_display_name": "평택·당진",
      "normalized_port": {
        "port_code": "031",
        "port_name": "평택·당진",
        "display_name": "평택·당진",
        "raw_port": "Pyeongtaek-Dangjin",
        "raw_aliases": [
          "Pyeongtaek-Dangjin",
          "OCEAN DISTRICT",
          "평택·당진항",
          "평택·당진"
        ]
      },
      "operator_display": "",
      "operator_source": "",
      "operator_confidence": 0,
      "detail_eligible": true,
      "detail_inclusion_exception": false,
      "detail_inclusion_reason": "GT 5,000 이상으로 상세 상업 분석 대상입니다.",
      "detail_exclusion_reason": "",
      "detail_inclusion_exception_codes": [],
      "tonnage_summary": {
        "gt": 9576,
        "dwt": null,
        "size_class": "SMALL_COMMERCIAL",
        "gt_source": "gt",
        "dwt_source": "missing",
        "tonnage_confidence": 90
      },
      "biofoulingRiskScore": 20,
      "hullGrowthIndex": 27,
      "cleaningOpportunityScore": 26,
      "anchorageHours": 0,
      "portStayHours": 25,
      "sstCelsius": 22.2,
      "sstAnomalyCelsius": 0.6,
      "salinityPsu": 31.6,
      "ocean_risk_score": 14,
      "ocean_risk_label_ko": "낮음",
      "marine_heatwave_level": "WATCH",
      "marine_heatwave_label_ko": "주의",
      "fouling_accelerator_pct": 35,
      "ocean_source": "FALLBACK",
      "ocean_updated_at": "2026-06-11T09:44:10.845Z",
      "tropicalExposureDays": 0,
      "slowSteamingHours": 0,
      "riskReasons": [
        "SST 22.2도",
        "평년 대비 +1.3도",
        "해양열파 주의",
        "MASTER_DB_MATCH_FOUND",
        "HIGH_GT_VESSEL",
        "AGENT_IDENTIFIED",
        "CONTACT_PATH_AVAILABLE",
        "Low-speed or waiting condition",
        "COMMERCIAL_TARGET_SIGNALS_INSUFFICIENT",
        "KNOWN_COMMERCIAL_SEGMENT"
      ],
      "recommendedAction": "낮은 우선순위",
      "confidence": "medium",
      "vessel_display": {
        "vessel_name": "LADY ROSEBUD",
        "imo": "-",
        "mmsi": "-",
        "call_sign": "3FAF5",
        "flag": "-",
        "vessel_type": "냉동.냉장선",
        "gt": 9576,
        "dwt": null,
        "tonnage_summary": {
          "gt": 9576,
          "dwt": null,
          "size_class": "SMALL_COMMERCIAL",
          "gt_source": "gt",
          "dwt_source": "missing",
          "tonnage_confidence": 90
        },
        "target_size_qualified": null,
        "target_size_reason": "",
        "detail_eligible": true,
        "detail_inclusion_exception": false,
        "detail_inclusion_reason": "GT 5,000 이상으로 상세 상업 분석 대상입니다.",
        "detail_exclusion_reason": "",
        "operator": "(주)원인터내셔날",
        "operator_display": "(주)원인터내셔날",
        "operator_source": "vessel_display",
        "operator_confidence": 0,
        "company": "(주)원인터내셔날",
        "owner": "-",
        "manager": "-",
        "technical_manager": "-",
        "agent": "(주)원인터내셔날",
        "current_port": "평택·당진",
        "raw_current_port": "평택·당진",
        "current_port_korean": "평택·당진",
        "normalized_port": {
          "port_code": "031",
          "port_name": "평택·당진",
          "display_name": "평택·당진",
          "raw_port": "Pyeongtaek-Dangjin",
          "raw_aliases": [
            "Pyeongtaek-Dangjin",
            "OCEAN DISTRICT",
            "평택·당진항",
            "평택·당진"
          ]
        },
        "port_display_name": "평택·당진",
        "berth": "동부두 11번선석",
        "anchorage": "-",
        "eta": "2026-06-14T14:00:00.000Z",
        "etb": "-",
        "ata": "2026-06-10 22:00:00+09:00",
        "atb": "-",
        "etd": "2026-06-11 23:00:00",
        "atd": "2026-06-11 23:00:00+09:00",
        "berth_source": "-",
        "arrival_window": null,
        "arrival_window_source": "-",
        "stay_days": 1,
        "stay_hours": 25,
        "waiting_hours": 0,
        "port_stay_hours": 25,
        "congestion_score": 0,
        "waiting_score": null,
        "last_seen_at": "2026-06-11T09:40:49.215Z",
        "data_source": "Merged Port Operation port call",
        "identity_source": "-",
        "identity_confidence": 91,
        "identity_match_type": "call_sign_exact",
        "identity_conflict": null,
        "confidence_score": 66,
        "opportunity_score": 15,
        "risk_score": 45,
        "biofouling_score": 20,
        "compliance_score": null,
        "commercial_size_qualified": true,
        "biofouling_compliance_exposure": {
          "exposed": false,
          "jurisdiction": "",
          "basis": "",
          "threshold_type": "",
          "confidence": 0,
          "notes": "관할 목적지/항로 신호가 확인되지 않았습니다."
        },
        "compliance_exposure": {
          "exposed": false,
          "jurisdiction": "",
          "basis": "",
          "threshold_type": "",
          "confidence": 0,
          "notes": "관할 목적지/항로 신호가 확인되지 않았습니다."
        },
        "biofoulingRiskScore": 20,
        "hullGrowthIndex": 27,
        "cleaningOpportunityScore": 26,
        "anchorageHours": 0,
        "portStayHours": 25,
        "sstCelsius": 22.2,
        "sstAnomalyCelsius": 0.6,
        "salinityPsu": 31.6,
        "ocean_risk_score": 14,
        "ocean_risk_label_ko": "낮음",
        "marine_heatwave_level": "WATCH",
        "marine_heatwave_label_ko": "주의",
        "fouling_accelerator_pct": 35,
        "ocean_source": "FALLBACK",
        "ocean_updated_at": "2026-06-11T09:44:10.845Z",
        "tropicalExposureDays": 0,
        "slowSteamingHours": 0,
        "riskReasons": [
          "SST 22.2도",
          "평년 대비 +1.3도",
          "해양열파 주의",
          "MASTER_DB_MATCH_FOUND",
          "HIGH_GT_VESSEL",
          "AGENT_IDENTIFIED",
          "CONTACT_PATH_AVAILABLE",
          "Low-speed or waiting condition",
          "COMMERCIAL_TARGET_SIGNALS_INSUFFICIENT",
          "KNOWN_COMMERCIAL_SEGMENT"
        ],
        "recommendedAction": "낮은 우선순위",
        "confidence": "medium",
        "contact_readiness_score": 35,
        "priority_label": "LOW",
        "priority_label_ko": "모니터링",
        "target_categories": [],
        "pilotage_signal": {
          "has_pilotage": false,
          "pilotage_status": "UNKNOWN",
          "pilotage_time": null,
          "pilotage_time_text": null,
          "pilotage_direction": null,
          "pilot_station": null,
          "berth_name": null,
          "pilotage_port": "평택·당진",
          "pilotage_source": null,
          "pilotage_confidence": null,
          "match_type": "",
          "arrival_window": null,
          "reason": ""
        },
        "category_label": "",
        "korean_label": "",
        "reason_summary": "Pyeongtaek-Dangjin 동부두 11번선석에서 체류 1일째인 GT 9,576 unknown으로, 출항 전 약 4시간의 작업 가능 시간이 보입니다 · 출항도선 신호가 강하지 않습니다 · 연락 경로 단서가 있습니다.",
        "recommended_action": "낮은 우선순위",
        "data_sources": [
          "Merged Port Operation port call",
          "merged_port_operation",
          "real_public_api_snapshot",
          "port_operation",
          "gt"
        ],
        "enrichment_sources": [],
        "port_code": "031",
        "port_name": "평택·당진",
        "display_name": "평택·당진"
      },
      "display_name": "평택·당진"
    },
    {
      "vessel_id": "CALL-D8BU",
      "master_vessel_id": "MASTER-CALLSIGN-D8BU",
      "port_call_id": "MASTER-PORTCALL-MASTER-CALLSIGN-D8BU-030-030-2026-029-D8BU",
      "vessel_name": "포천 카렌",
      "imo": "",
      "mmsi": "",
      "call_sign": "D8BU",
      "identity_source": "",
      "identity_confidence": 91,
      "identity_match_type": "call_sign_exact",
      "port_code": "030",
      "port_name": "인천",
      "port_display_name": "인천",
      "normalized_port": {
        "port_code": "030",
        "port_name": "인천",
        "display_name": "인천",
        "raw_port": "Incheon",
        "raw_aliases": [
          "Incheon",
          "대산",
          "인천항",
          "인천"
        ]
      },
      "operator_display": "",
      "operator_source": "",
      "operator_confidence": 0,
      "detail_eligible": true,
      "detail_inclusion_exception": false,
      "detail_inclusion_reason": "GT 5,000 이상으로 상세 상업 분석 대상입니다.",
      "detail_exclusion_reason": "",
      "detail_inclusion_exception_codes": [],
      "tonnage_summary": {
        "gt": 7699,
        "dwt": null,
        "size_class": "SMALL_COMMERCIAL",
        "gt_source": "gt",
        "dwt_source": "missing",
        "tonnage_confidence": 90
      },
      "biofoulingRiskScore": 5,
      "hullGrowthIndex": 19,
      "cleaningOpportunityScore": 16,
      "anchorageHours": 0,
      "portStayHours": 16,
      "sstCelsius": 21.7,
      "sstAnomalyCelsius": 0.6,
      "salinityPsu": 31.8,
      "ocean_risk_score": 12,
      "ocean_risk_label_ko": "낮음",
      "marine_heatwave_level": "WATCH",
      "marine_heatwave_label_ko": "주의",
      "fouling_accelerator_pct": 34,
      "ocean_source": "FALLBACK",
      "ocean_updated_at": "2026-06-11T09:44:10.845Z",
      "tropicalExposureDays": 0,
      "slowSteamingHours": 0,
      "riskReasons": [
        "SST 21.7도",
        "평년 대비 +1.1도",
        "해양열파 주의",
        "MASTER_DB_MATCH_FOUND",
        "HIGH_GT_VESSEL",
        "AGENT_IDENTIFIED",
        "CONTACT_PATH_AVAILABLE",
        "PREDICTED_ARRIVAL_OPPORTUNITY",
        "ETA_24_72H_WINDOW",
        "Low-speed or waiting condition"
      ],
      "recommendedAction": "낮은 우선순위",
      "confidence": "medium",
      "vessel_display": {
        "vessel_name": "포천 카렌",
        "imo": "-",
        "mmsi": "-",
        "call_sign": "D8BU",
        "flag": "-",
        "vessel_type": "케미칼 운반선",
        "gt": 7699,
        "dwt": null,
        "tonnage_summary": {
          "gt": 7699,
          "dwt": null,
          "size_class": "SMALL_COMMERCIAL",
          "gt_source": "gt",
          "dwt_source": "missing",
          "tonnage_confidence": 90
        },
        "target_size_qualified": null,
        "target_size_reason": "",
        "detail_eligible": true,
        "detail_inclusion_exception": false,
        "detail_inclusion_reason": "GT 5,000 이상으로 상세 상업 분석 대상입니다.",
        "detail_exclusion_reason": "",
        "operator": "비에스쉬핑 주식회사",
        "operator_display": "비에스쉬핑 주식회사",
        "operator_source": "vessel_display",
        "operator_confidence": 0,
        "company": "비에스쉬핑 주식회사",
        "owner": "-",
        "manager": "-",
        "technical_manager": "-",
        "agent": "비에스쉬핑 주식회사",
        "current_port": "인천",
        "raw_current_port": "인천",
        "current_port_korean": "인천",
        "normalized_port": {
          "port_code": "030",
          "port_name": "인천",
          "display_name": "인천",
          "raw_port": "Incheon",
          "raw_aliases": [
            "Incheon",
            "대산",
            "인천항",
            "인천"
          ]
        },
        "port_display_name": "인천",
        "berth": "북항 현대오일뱅크돌핀",
        "anchorage": "-",
        "eta": "2026-06-12T02:00:00.000Z",
        "etb": "-",
        "ata": "2026-06-11 13:00:00+09:00",
        "atb": "-",
        "etd": "2026-06-12 05:00:00",
        "atd": "2026-06-12 05:00:00+09:00",
        "berth_source": "-",
        "arrival_window": null,
        "arrival_window_source": "-",
        "stay_days": 0.7,
        "stay_hours": 16,
        "waiting_hours": 0,
        "port_stay_hours": 16,
        "congestion_score": 0,
        "waiting_score": null,
        "last_seen_at": "2026-06-11T09:40:49.215Z",
        "data_source": "Merged Port Operation port call",
        "identity_source": "-",
        "identity_confidence": 91,
        "identity_match_type": "call_sign_exact",
        "identity_conflict": null,
        "confidence_score": 66,
        "opportunity_score": 15,
        "risk_score": 45,
        "biofouling_score": 5,
        "compliance_score": null,
        "commercial_size_qualified": true,
        "biofouling_compliance_exposure": {
          "exposed": false,
          "jurisdiction": "",
          "basis": "",
          "threshold_type": "",
          "confidence": 0,
          "notes": "관할 목적지/항로 신호가 확인되지 않았습니다."
        },
        "compliance_exposure": {
          "exposed": false,
          "jurisdiction": "",
          "basis": "",
          "threshold_type": "",
          "confidence": 0,
          "notes": "관할 목적지/항로 신호가 확인되지 않았습니다."
        },
        "biofoulingRiskScore": 5,
        "hullGrowthIndex": 19,
        "cleaningOpportunityScore": 16,
        "anchorageHours": 0,
        "portStayHours": 16,
        "sstCelsius": 21.7,
        "sstAnomalyCelsius": 0.6,
        "salinityPsu": 31.8,
        "ocean_risk_score": 12,
        "ocean_risk_label_ko": "낮음",
        "marine_heatwave_level": "WATCH",
        "marine_heatwave_label_ko": "주의",
        "fouling_accelerator_pct": 34,
        "ocean_source": "FALLBACK",
        "ocean_updated_at": "2026-06-11T09:44:10.845Z",
        "tropicalExposureDays": 0,
        "slowSteamingHours": 0,
        "riskReasons": [
          "SST 21.7도",
          "평년 대비 +1.1도",
          "해양열파 주의",
          "MASTER_DB_MATCH_FOUND",
          "HIGH_GT_VESSEL",
          "AGENT_IDENTIFIED",
          "CONTACT_PATH_AVAILABLE",
          "PREDICTED_ARRIVAL_OPPORTUNITY",
          "ETA_24_72H_WINDOW",
          "Low-speed or waiting condition"
        ],
        "recommendedAction": "낮은 우선순위",
        "confidence": "medium",
        "contact_readiness_score": 35,
        "priority_label": "LOW",
        "priority_label_ko": "모니터링",
        "target_categories": [],
        "pilotage_signal": {
          "has_pilotage": false,
          "pilotage_status": "UNKNOWN",
          "pilotage_time": null,
          "pilotage_time_text": null,
          "pilotage_direction": null,
          "pilot_station": null,
          "berth_name": null,
          "pilotage_port": "인천",
          "pilotage_source": null,
          "pilotage_confidence": null,
          "match_type": "",
          "arrival_window": null,
          "reason": ""
        },
        "category_label": "",
        "korean_label": "",
        "reason_summary": "Incheon 북항 현대오일뱅크돌핀에서 현재 항만 체류 중인 GT 7,699 unknown으로, 출항 전 약 10시간의 작업 가능 시간이 보입니다 · 출항도선 신호가 강하지 않습니다 · 연락 경로 단서가 있습니다.",
        "recommended_action": "낮은 우선순위",
        "data_sources": [
          "Merged Port Operation port call",
          "merged_port_operation",
          "real_public_api_snapshot",
          "port_operation",
          "gt"
        ],
        "enrichment_sources": [],
        "port_code": "030",
        "port_name": "인천",
        "display_name": "인천"
      },
      "display_name": "인천"
    },
    {
      "vessel_id": "CALL-111822",
      "master_vessel_id": "MASTER-CALLSIGN-111822",
      "port_call_id": "MASTER-PORTCALL-MASTER-CALLSIGN-111822-020-020-2026-001-111822",
      "vessel_name": "웅진에프디20000호",
      "imo": "",
      "mmsi": "",
      "call_sign": "111822",
      "identity_source": "",
      "identity_confidence": 91,
      "identity_match_type": "call_sign_exact",
      "port_code": "020",
      "port_name": "부산",
      "port_display_name": "부산",
      "normalized_port": {
        "port_code": "020",
        "port_name": "부산",
        "display_name": "부산",
        "raw_port": "Busan",
        "raw_aliases": [
          "Busan",
          "부산항",
          "부산"
        ]
      },
      "operator_display": "",
      "operator_source": "",
      "operator_confidence": 0,
      "detail_eligible": true,
      "detail_inclusion_exception": false,
      "detail_inclusion_reason": "GT 5,000 이상으로 상세 상업 분석 대상입니다.",
      "detail_exclusion_reason": "",
      "detail_inclusion_exception_codes": [],
      "tonnage_summary": {
        "gt": 12732,
        "dwt": null,
        "size_class": "MEDIUM_COMMERCIAL",
        "gt_source": "gt",
        "dwt_source": "missing",
        "tonnage_confidence": 90
      },
      "biofoulingRiskScore": 35,
      "hullGrowthIndex": 38,
      "cleaningOpportunityScore": 33,
      "anchorageHours": 0,
      "portStayHours": 0,
      "sstCelsius": 24.6,
      "sstAnomalyCelsius": 0.8,
      "salinityPsu": 33.8,
      "ocean_risk_score": 14,
      "ocean_risk_label_ko": "낮음",
      "marine_heatwave_level": "HIGH",
      "marine_heatwave_label_ko": "높음",
      "fouling_accelerator_pct": 38,
      "ocean_source": "FALLBACK",
      "ocean_updated_at": "2026-06-11T09:44:10.845Z",
      "tropicalExposureDays": 0,
      "slowSteamingHours": 0,
      "riskReasons": [
        "SST 24.6도",
        "평년 대비 +2.1도",
        "해양열파 높음",
        "MASTER_DB_MATCH_FOUND",
        "LOW_SPEED_CONGESTION_PATTERN",
        "HIGH_GT_VESSEL",
        "ANCHORAGE_CLASSIFIED",
        "AGENT_IDENTIFIED",
        "CONTACT_PATH_AVAILABLE",
        "Low-speed or waiting condition"
      ],
      "recommendedAction": "낮은 우선순위",
      "confidence": "high",
      "vessel_display": {
        "vessel_name": "웅진에프디20000호",
        "imo": "-",
        "mmsi": "-",
        "call_sign": "111822",
        "flag": "-",
        "vessel_type": "기타 부선",
        "gt": 12732,
        "dwt": null,
        "tonnage_summary": {
          "gt": 12732,
          "dwt": null,
          "size_class": "MEDIUM_COMMERCIAL",
          "gt_source": "gt",
          "dwt_source": "missing",
          "tonnage_confidence": 90
        },
        "target_size_qualified": null,
        "target_size_reason": "",
        "detail_eligible": true,
        "detail_inclusion_exception": false,
        "detail_inclusion_reason": "GT 5,000 이상으로 상세 상업 분석 대상입니다.",
        "detail_exclusion_reason": "",
        "operator": "웅진개발(주)",
        "operator_display": "웅진개발(주)",
        "operator_source": "vessel_display",
        "operator_confidence": 0,
        "company": "웅진개발(주)",
        "owner": "-",
        "manager": "-",
        "technical_manager": "-",
        "agent": "웅진개발(주)",
        "current_port": "부산",
        "raw_current_port": "부산",
        "current_port_korean": "부산",
        "normalized_port": {
          "port_code": "020",
          "port_name": "부산",
          "display_name": "부산",
          "raw_port": "Busan",
          "raw_aliases": [
            "Busan",
            "부산항",
            "부산"
          ]
        },
        "port_display_name": "부산",
        "berth": "기타정박지",
        "anchorage": "기타정박지",
        "eta": "-",
        "etb": "-",
        "ata": "2026-06-13 00:00:00+09:00",
        "atb": "-",
        "etd": "-",
        "atd": "2026-06-13 00:00:00+09:00",
        "berth_source": "-",
        "arrival_window": null,
        "arrival_window_source": "-",
        "stay_days": null,
        "stay_hours": 0,
        "waiting_hours": 0,
        "port_stay_hours": 0,
        "congestion_score": 0,
        "waiting_score": null,
        "last_seen_at": "2026-06-11T09:40:49.215Z",
        "data_source": "Merged Port Operation port call",
        "identity_source": "-",
        "identity_confidence": 91,
        "identity_match_type": "call_sign_exact",
        "identity_conflict": null,
        "confidence_score": 78,
        "opportunity_score": 14,
        "risk_score": 45,
        "biofouling_score": 35,
        "compliance_score": null,
        "commercial_size_qualified": true,
        "biofouling_compliance_exposure": {
          "exposed": false,
          "jurisdiction": "",
          "basis": "",
          "threshold_type": "",
          "confidence": 0,
          "notes": "관할 목적지/항로 신호가 확인되지 않았습니다."
        },
        "compliance_exposure": {
          "exposed": false,
          "jurisdiction": "",
          "basis": "",
          "threshold_type": "",
          "confidence": 0,
          "notes": "관할 목적지/항로 신호가 확인되지 않았습니다."
        },
        "biofoulingRiskScore": 35,
        "hullGrowthIndex": 38,
        "cleaningOpportunityScore": 33,
        "anchorageHours": 0,
        "portStayHours": 0,
        "sstCelsius": 24.6,
        "sstAnomalyCelsius": 0.8,
        "salinityPsu": 33.8,
        "ocean_risk_score": 14,
        "ocean_risk_label_ko": "낮음",
        "marine_heatwave_level": "HIGH",
        "marine_heatwave_label_ko": "높음",
        "fouling_accelerator_pct": 38,
        "ocean_source": "FALLBACK",
        "ocean_updated_at": "2026-06-11T09:44:10.845Z",
        "tropicalExposureDays": 0,
        "slowSteamingHours": 0,
        "riskReasons": [
          "SST 24.6도",
          "평년 대비 +2.1도",
          "해양열파 높음",
          "MASTER_DB_MATCH_FOUND",
          "LOW_SPEED_CONGESTION_PATTERN",
          "HIGH_GT_VESSEL",
          "ANCHORAGE_CLASSIFIED",
          "AGENT_IDENTIFIED",
          "CONTACT_PATH_AVAILABLE",
          "Low-speed or waiting condition"
        ],
        "recommendedAction": "낮은 우선순위",
        "confidence": "high",
        "contact_readiness_score": 35,
        "priority_label": "LOW",
        "priority_label_ko": "모니터링",
        "target_categories": [],
        "pilotage_signal": {
          "has_pilotage": false,
          "pilotage_status": "UNKNOWN",
          "pilotage_time": null,
          "pilotage_time_text": null,
          "pilotage_direction": null,
          "pilot_station": null,
          "berth_name": null,
          "pilotage_port": "부산",
          "pilotage_source": null,
          "pilotage_confidence": null,
          "match_type": "",
          "arrival_window": null,
          "reason": ""
        },
        "category_label": "",
        "korean_label": "",
        "reason_summary": "Busan 기타정박지에서 묘박/대기 0일째인 GT 12,732 unknown으로, 출항도선 신호가 강하지 않습니다 · 연락 경로 단서가 있습니다.",
        "recommended_action": "낮은 우선순위",
        "data_sources": [
          "Merged Port Operation port call",
          "merged_port_operation",
          "real_public_api_snapshot",
          "port_operation",
          "gt"
        ],
        "enrichment_sources": [],
        "port_code": "020",
        "port_name": "부산",
        "display_name": "부산"
      },
      "display_name": "부산"
    },
    {
      "vessel_id": "CALL-3FTX3",
      "master_vessel_id": "MASTER-CALLSIGN-3FTX3",
      "port_call_id": "MASTER-PORTCALL-MASTER-CALLSIGN-3FTX3-030-030-2026-059-3FTX3",
      "vessel_name": "ORIENTAL PEARL VIII",
      "imo": "",
      "mmsi": "",
      "call_sign": "3FTX3",
      "identity_source": "",
      "identity_confidence": 91,
      "identity_match_type": "call_sign_exact",
      "port_code": "030",
      "port_name": "인천",
      "port_display_name": "인천",
      "normalized_port": {
        "port_code": "030",
        "port_name": "인천",
        "display_name": "인천",
        "raw_port": "Incheon",
        "raw_aliases": [
          "Incheon",
          "DANDONG",
          "인천항",
          "인천"
        ]
      },
      "operator_display": "",
      "operator_source": "",
      "operator_confidence": 0,
      "detail_eligible": true,
      "detail_inclusion_exception": false,
      "detail_inclusion_reason": "GT 5,000 이상으로 상세 상업 분석 대상입니다.",
      "detail_exclusion_reason": "",
      "detail_inclusion_exception_codes": [],
      "tonnage_summary": {
        "gt": 24748,
        "dwt": null,
        "size_class": "MEDIUM_COMMERCIAL",
        "gt_source": "gt",
        "dwt_source": "missing",
        "tonnage_confidence": 90
      },
      "biofoulingRiskScore": 5,
      "hullGrowthIndex": 19,
      "cleaningOpportunityScore": 15,
      "anchorageHours": 0,
      "portStayHours": 8,
      "sstCelsius": 21.7,
      "sstAnomalyCelsius": 0.6,
      "salinityPsu": 31.8,
      "ocean_risk_score": 10,
      "ocean_risk_label_ko": "낮음",
      "marine_heatwave_level": "WATCH",
      "marine_heatwave_label_ko": "주의",
      "fouling_accelerator_pct": 34,
      "ocean_source": "FALLBACK",
      "ocean_updated_at": "2026-06-11T09:44:10.845Z",
      "tropicalExposureDays": 0,
      "slowSteamingHours": 0,
      "riskReasons": [
        "SST 21.7도",
        "평년 대비 +1.1도",
        "해양열파 주의",
        "MASTER_DB_MATCH_FOUND",
        "HIGH_GT_VESSEL",
        "AGENT_IDENTIFIED",
        "CONTACT_PATH_AVAILABLE",
        "REPEAT_CALLER_SIGNAL",
        "REPEAT_CALLER",
        "Low-speed or waiting condition"
      ],
      "recommendedAction": "낮은 우선순위",
      "confidence": "medium",
      "vessel_display": {
        "vessel_name": "ORIENTAL PEARL VIII",
        "imo": "-",
        "mmsi": "-",
        "call_sign": "3FTX3",
        "flag": "-",
        "vessel_type": "국제카페리",
        "gt": 24748,
        "dwt": null,
        "tonnage_summary": {
          "gt": 24748,
          "dwt": null,
          "size_class": "MEDIUM_COMMERCIAL",
          "gt_source": "gt",
          "dwt_source": "missing",
          "tonnage_confidence": 90
        },
        "target_size_qualified": null,
        "target_size_reason": "",
        "detail_eligible": true,
        "detail_inclusion_exception": false,
        "detail_inclusion_reason": "GT 5,000 이상으로 상세 상업 분석 대상입니다.",
        "detail_exclusion_reason": "",
        "operator": "거림해운(주)",
        "operator_display": "거림해운(주)",
        "operator_source": "vessel_display",
        "operator_confidence": 0,
        "company": "거림해운(주)",
        "owner": "-",
        "manager": "-",
        "technical_manager": "-",
        "agent": "거림해운(주)",
        "current_port": "인천",
        "raw_current_port": "인천",
        "current_port_korean": "인천",
        "normalized_port": {
          "port_code": "030",
          "port_name": "인천",
          "display_name": "인천",
          "raw_port": "Incheon",
          "raw_aliases": [
            "Incheon",
            "DANDONG",
            "인천항",
            "인천"
          ]
        },
        "port_display_name": "인천",
        "berth": "남항 신국제여객부두 2선석",
        "anchorage": "-",
        "eta": "2026-06-15T08:30:00.000Z",
        "etb": "-",
        "ata": "2026-06-12 09:30:00+09:00",
        "atb": "-",
        "etd": "2026-06-12 17:30:00",
        "atd": "2026-06-12 17:30:00+09:00",
        "berth_source": "-",
        "arrival_window": null,
        "arrival_window_source": "-",
        "stay_days": 0.3,
        "stay_hours": 8,
        "waiting_hours": 0,
        "port_stay_hours": 8,
        "congestion_score": 0,
        "waiting_score": null,
        "last_seen_at": "2026-06-11T09:40:49.215Z",
        "data_source": "Merged Port Operation port call",
        "identity_source": "-",
        "identity_confidence": 91,
        "identity_match_type": "call_sign_exact",
        "identity_conflict": null,
        "confidence_score": 66,
        "opportunity_score": 14,
        "risk_score": 45,
        "biofouling_score": 5,
        "compliance_score": null,
        "commercial_size_qualified": true,
        "biofouling_compliance_exposure": {
          "exposed": false,
          "jurisdiction": "",
          "basis": "",
          "threshold_type": "",
          "confidence": 0,
          "notes": "관할 목적지/항로 신호가 확인되지 않았습니다."
        },
        "compliance_exposure": {
          "exposed": false,
          "jurisdiction": "",
          "basis": "",
          "threshold_type": "",
          "confidence": 0,
          "notes": "관할 목적지/항로 신호가 확인되지 않았습니다."
        },
        "biofoulingRiskScore": 5,
        "hullGrowthIndex": 19,
        "cleaningOpportunityScore": 15,
        "anchorageHours": 0,
        "portStayHours": 8,
        "sstCelsius": 21.7,
        "sstAnomalyCelsius": 0.6,
        "salinityPsu": 31.8,
        "ocean_risk_score": 10,
        "ocean_risk_label_ko": "낮음",
        "marine_heatwave_level": "WATCH",
        "marine_heatwave_label_ko": "주의",
        "fouling_accelerator_pct": 34,
        "ocean_source": "FALLBACK",
        "ocean_updated_at": "2026-06-11T09:44:10.845Z",
        "tropicalExposureDays": 0,
        "slowSteamingHours": 0,
        "riskReasons": [
          "SST 21.7도",
          "평년 대비 +1.1도",
          "해양열파 주의",
          "MASTER_DB_MATCH_FOUND",
          "HIGH_GT_VESSEL",
          "AGENT_IDENTIFIED",
          "CONTACT_PATH_AVAILABLE",
          "REPEAT_CALLER_SIGNAL",
          "REPEAT_CALLER",
          "Low-speed or waiting condition"
        ],
        "recommendedAction": "낮은 우선순위",
        "confidence": "medium",
        "contact_readiness_score": 35,
        "priority_label": "LOW",
        "priority_label_ko": "모니터링",
        "target_categories": [],
        "pilotage_signal": {
          "has_pilotage": false,
          "pilotage_status": "UNKNOWN",
          "pilotage_time": null,
          "pilotage_time_text": null,
          "pilotage_direction": null,
          "pilot_station": null,
          "berth_name": null,
          "pilotage_port": "인천",
          "pilotage_source": null,
          "pilotage_confidence": null,
          "match_type": "",
          "arrival_window": null,
          "reason": ""
        },
        "category_label": "",
        "korean_label": "",
        "reason_summary": "Incheon 남항 신국제여객부두 2선석에서 현재 항만 체류 중인 GT 24,748 unknown으로, 출항 전 약 23시간의 작업 가능 시간이 보입니다 · 출항도선 신호가 강하지 않습니다 · 연락 경로 단서가 있습니다.",
        "recommended_action": "낮은 우선순위",
        "data_sources": [
          "Merged Port Operation port call",
          "merged_port_operation",
          "real_public_api_snapshot",
          "port_operation",
          "gt"
        ],
        "enrichment_sources": [],
        "port_code": "030",
        "port_name": "인천",
        "display_name": "인천"
      },
      "display_name": "인천"
    }
  ]
}
