{
  "schema_version": "1.0",
  "generated_at": "2026-06-08T22:18:36.35+00:00",
  "data_mode": "live",
  "run_id": "run_20260608221252238_21921d11",
  "active_run_id": "run_20260608221252238_21921d11",
  "page": 50,
  "page_size": 30,
  "total_count": 1494,
  "total_pages": 50,
  "items": [
    {
      "vessel_id": "CALL-954371",
      "master_vessel_id": "MASTER-CALLSIGN-954371",
      "port_call_id": "MASTER-PORTCALL-MASTER-CALLSIGN-954371-020-020-2026-005-954371",
      "vessel_name": "일광6002호",
      "imo": "-",
      "mmsi": "-",
      "call_sign": "954371",
      "port_code": "020",
      "port_name": "Busan",
      "vessel_display": {
        "vessel_name": "일광6002호",
        "imo": "-",
        "mmsi": "-",
        "call_sign": "954371",
        "flag": "-",
        "vessel_type": "공사(작업)용 부선",
        "gt": 1075,
        "dwt": "-",
        "operator": "-",
        "owner": "-",
        "manager": "-",
        "current_port": "Busan",
        "eta": "-",
        "ata": "2026-06-05T15:00:00+00:00",
        "stay_days": 3.6,
        "opportunity_score": 7,
        "risk_score": 45,
        "confidence_score": 66,
        "priority_label": "HOT",
        "reason_summary": "Busan 감천 4부두 5선석에서 현재 항만 체류 중인 unknown으로, 출항도선 신호가 강하지 않습니다 · 연락 경로 단서가 있습니다.",
        "recommended_action": "운영선사 확인",
        "data_sources": [
          "merged_port_operation"
        ]
      }
    },
    {
      "vessel_id": "CALL-150056",
      "master_vessel_id": "MASTER-CALLSIGN-150056",
      "port_call_id": "MASTER-PORTCALL-MASTER-CALLSIGN-150056-020-020-2026-003-150056",
      "vessel_name": "해영6001",
      "imo": "-",
      "mmsi": "-",
      "call_sign": "150056",
      "port_code": "020",
      "port_name": "Busan",
      "vessel_display": {
        "vessel_name": "해영6001",
        "imo": "-",
        "mmsi": "-",
        "call_sign": "150056",
        "flag": "-",
        "vessel_type": "기타 부선",
        "gt": 1185,
        "dwt": "-",
        "operator": "-",
        "owner": "-",
        "manager": "-",
        "current_port": "Busan",
        "eta": "-",
        "ata": "2026-06-05T15:00:00+00:00",
        "stay_days": 3.6,
        "opportunity_score": 7,
        "risk_score": 45,
        "confidence_score": 66,
        "priority_label": "HOT",
        "reason_summary": "Busan 청학안벽에서 현재 항만 체류 중인 unknown으로, 출항도선 신호가 강하지 않습니다 · 연락 경로 단서가 있습니다.",
        "recommended_action": "운영선사 확인",
        "data_sources": [
          "merged_port_operation"
        ]
      }
    },
    {
      "vessel_id": "CALL-120067",
      "master_vessel_id": "MASTER-CALLSIGN-120067",
      "port_call_id": "MASTER-PORTCALL-MASTER-CALLSIGN-120067-020-020-2026-012-120067",
      "vessel_name": "256덕양호",
      "imo": "-",
      "mmsi": "-",
      "call_sign": "120067",
      "port_code": "020",
      "port_name": "Busan",
      "vessel_display": {
        "vessel_name": "256덕양호",
        "imo": "-",
        "mmsi": "-",
        "call_sign": "120067",
        "flag": "-",
        "vessel_type": "기타 부선",
        "gt": 362,
        "dwt": "-",
        "operator": "-",
        "owner": "-",
        "manager": "-",
        "current_port": "Busan",
        "eta": "-",
        "ata": "2026-06-05T15:00:00+00:00",
        "stay_days": 3.6,
        "opportunity_score": 7,
        "risk_score": 45,
        "confidence_score": 66,
        "priority_label": "HOT",
        "reason_summary": "Busan 청학안벽에서 현재 항만 체류 중인 unknown으로, 출항도선 신호가 강하지 않습니다 · 연락 경로 단서가 있습니다.",
        "recommended_action": "운영선사 확인",
        "data_sources": [
          "merged_port_operation"
        ]
      }
    },
    {
      "vessel_id": "CALL-260001",
      "master_vessel_id": "MASTER-CALLSIGN-260001",
      "port_call_id": "MASTER-PORTCALL-MASTER-CALLSIGN-260001-020-020-2026-008-260001",
      "vessel_name": "강남비-15000",
      "imo": "-",
      "mmsi": "-",
      "call_sign": "260001",
      "port_code": "020",
      "port_name": "Busan",
      "vessel_display": {
        "vessel_name": "강남비-15000",
        "imo": "-",
        "mmsi": "-",
        "call_sign": "260001",
        "flag": "-",
        "vessel_type": "기타 부선",
        "gt": 3456,
        "dwt": "-",
        "operator": "-",
        "owner": "-",
        "manager": "-",
        "current_port": "Busan",
        "eta": "-",
        "ata": "2026-06-06T15:00:00+00:00",
        "stay_days": 3.6,
        "opportunity_score": 7,
        "risk_score": 45,
        "confidence_score": 66,
        "priority_label": "HOT",
        "reason_summary": "Busan 감천 4부두 5선석에서 현재 항만 체류 중인 unknown으로, 출항도선 신호가 강하지 않습니다 · 연락 경로 단서가 있습니다.",
        "recommended_action": "운영선사 확인",
        "data_sources": [
          "merged_port_operation"
        ]
      }
    },
    {
      "vessel_id": "CALL-071182",
      "master_vessel_id": "MASTER-CALLSIGN-071182",
      "port_call_id": "MASTER-PORTCALL-MASTER-CALLSIGN-071182-020-020-2026-002-071182",
      "vessel_name": "해건12000호",
      "imo": "-",
      "mmsi": "-",
      "call_sign": "071182",
      "port_code": "020",
      "port_name": "Busan",
      "vessel_display": {
        "vessel_name": "해건12000호",
        "imo": "-",
        "mmsi": "-",
        "call_sign": "071182",
        "flag": "-",
        "vessel_type": "기타 부선",
        "gt": 2743,
        "dwt": "-",
        "operator": "-",
        "owner": "-",
        "manager": "-",
        "current_port": "Busan",
        "eta": "-",
        "ata": "2026-06-07T15:00:00+00:00",
        "stay_days": 2.6,
        "opportunity_score": 7,
        "risk_score": 45,
        "confidence_score": 66,
        "priority_label": "LOW",
        "reason_summary": "Busan 청학안벽에서 현재 항만 체류 중인 unknown으로, 출항도선 신호가 강하지 않습니다 · 연락 경로 단서가 있습니다.",
        "recommended_action": "운영선사 확인",
        "data_sources": [
          "merged_port_operation"
        ]
      }
    },
    {
      "vessel_id": "CALL-160036",
      "master_vessel_id": "MASTER-CALLSIGN-160036",
      "port_call_id": "MASTER-PORTCALL-MASTER-CALLSIGN-160036-020-020-2026-005-160036",
      "vessel_name": "해광8002호",
      "imo": "-",
      "mmsi": "-",
      "call_sign": "160036",
      "port_code": "020",
      "port_name": "Busan",
      "vessel_display": {
        "vessel_name": "해광8002호",
        "imo": "-",
        "mmsi": "-",
        "call_sign": "160036",
        "flag": "-",
        "vessel_type": "기타 부선",
        "gt": 1447,
        "dwt": "-",
        "operator": "-",
        "owner": "-",
        "manager": "-",
        "current_port": "Busan",
        "eta": "-",
        "ata": "2026-06-07T15:00:00+00:00",
        "stay_days": 0,
        "opportunity_score": 7,
        "risk_score": 45,
        "confidence_score": 66,
        "priority_label": "LOW",
        "reason_summary": "Busan 청학안벽에서 현재 항만 체류 중인 unknown으로, 출항도선 신호가 강하지 않습니다 · 연락 경로 단서가 있습니다.",
        "recommended_action": "운영선사 확인",
        "data_sources": [
          "merged_port_operation"
        ]
      }
    },
    {
      "vessel_id": "CALL-220011",
      "master_vessel_id": "MASTER-CALLSIGN-220011",
      "port_call_id": "MASTER-PORTCALL-MASTER-CALLSIGN-220011-020-020-2026-015-220011",
      "vessel_name": "덕양 250",
      "imo": "-",
      "mmsi": "-",
      "call_sign": "220011",
      "port_code": "020",
      "port_name": "Busan",
      "vessel_display": {
        "vessel_name": "덕양 250",
        "imo": "-",
        "mmsi": "-",
        "call_sign": "220011",
        "flag": "-",
        "vessel_type": "기타 부선",
        "gt": 821,
        "dwt": "-",
        "operator": "-",
        "owner": "-",
        "manager": "-",
        "current_port": "Busan",
        "eta": "-",
        "ata": "2026-06-11T15:00:00+00:00",
        "stay_days": 3.6,
        "opportunity_score": 7,
        "risk_score": 45,
        "confidence_score": 66,
        "priority_label": "HOT",
        "reason_summary": "Busan 청학안벽에서 현재 항만 체류 중인 unknown으로, 출항도선 신호가 강하지 않습니다 · 연락 경로 단서가 있습니다.",
        "recommended_action": "운영선사 확인",
        "data_sources": [
          "merged_port_operation"
        ]
      }
    },
    {
      "vessel_id": "CALL-코마린",
      "master_vessel_id": "MASTER-CALLSIGN-코마린",
      "port_call_id": "MASTER-PORTCALL-MASTER-CALLSIGN-코마린-UNKNOWN-코마린",
      "vessel_name": "S FREDDIE",
      "imo": "-",
      "mmsi": "-",
      "call_sign": "코마린",
      "port_code": "UNKNOWN",
      "port_name": "Unknown",
      "vessel_display": {
        "vessel_name": "S FREDDIE",
        "imo": "-",
        "mmsi": "-",
        "call_sign": "코마린",
        "flag": "-",
        "vessel_type": "Unknown",
        "gt": "-",
        "dwt": "-",
        "operator": "-",
        "owner": "-",
        "manager": "-",
        "current_port": "Unknown",
        "eta": "-",
        "ata": "-",
        "stay_days": 0,
        "opportunity_score": 7,
        "risk_score": 45,
        "confidence_score": 40,
        "priority_label": "LOW",
        "reason_summary": "Unknown에서 현재 항만 체류 중인 unknown으로, 출항도선 신호가 강하지 않습니다 · 연락 경로 단서가 있습니다.",
        "recommended_action": "운영선사 확인",
        "data_sources": [
          "pilot_source_6"
        ]
      }
    },
    {
      "vessel_id": "CALL-그마",
      "master_vessel_id": "MASTER-CALLSIGN-그마",
      "port_call_id": "MASTER-PORTCALL-MASTER-CALLSIGN-그마-UNKNOWN-그마",
      "vessel_name": "U BOOTES",
      "imo": "-",
      "mmsi": "-",
      "call_sign": "그마",
      "port_code": "UNKNOWN",
      "port_name": "Unknown",
      "vessel_display": {
        "vessel_name": "U BOOTES",
        "imo": "-",
        "mmsi": "-",
        "call_sign": "그마",
        "flag": "-",
        "vessel_type": "Unknown",
        "gt": "-",
        "dwt": "-",
        "operator": "-",
        "owner": "-",
        "manager": "-",
        "current_port": "Unknown",
        "eta": "-",
        "ata": "-",
        "stay_days": 0,
        "opportunity_score": 7,
        "risk_score": 45,
        "confidence_score": 40,
        "priority_label": "LOW",
        "reason_summary": "Unknown에서 현재 항만 체류 중인 unknown으로, 출항도선 신호가 강하지 않습니다 · 연락 경로 단서가 있습니다.",
        "recommended_action": "운영선사 확인",
        "data_sources": [
          "pilot_source_6"
        ]
      }
    },
    {
      "vessel_id": "CALL-평진",
      "master_vessel_id": "MASTER-CALLSIGN-평진",
      "port_call_id": "MASTER-PORTCALL-MASTER-CALLSIGN-평진-UNKNOWN-평진",
      "vessel_name": "GOLDEN BRIDGE HANA",
      "imo": "-",
      "mmsi": "-",
      "call_sign": "평진",
      "port_code": "UNKNOWN",
      "port_name": "Unknown",
      "vessel_display": {
        "vessel_name": "GOLDEN BRIDGE HANA",
        "imo": "-",
        "mmsi": "-",
        "call_sign": "평진",
        "flag": "-",
        "vessel_type": "Unknown",
        "gt": "-",
        "dwt": "-",
        "operator": "-",
        "owner": "-",
        "manager": "-",
        "current_port": "Unknown",
        "eta": "-",
        "ata": "-",
        "stay_days": 0,
        "opportunity_score": 7,
        "risk_score": 45,
        "confidence_score": 40,
        "priority_label": "LOW",
        "reason_summary": "Unknown에서 현재 항만 체류 중인 unknown으로, 출항도선 신호가 강하지 않습니다 · 연락 경로 단서가 있습니다.",
        "recommended_action": "운영선사 확인",
        "data_sources": [
          "pilot_source_6"
        ]
      }
    },
    {
      "vessel_id": "CALL-항만",
      "master_vessel_id": "MASTER-CALLSIGN-항만",
      "port_call_id": "MASTER-PORTCALL-MASTER-CALLSIGN-항만-UNKNOWN-항만",
      "vessel_name": "ERSOZ WEST",
      "imo": "-",
      "mmsi": "-",
      "call_sign": "항만",
      "port_code": "UNKNOWN",
      "port_name": "Unknown",
      "vessel_display": {
        "vessel_name": "ERSOZ WEST",
        "imo": "-",
        "mmsi": "-",
        "call_sign": "항만",
        "flag": "-",
        "vessel_type": "Unknown",
        "gt": "-",
        "dwt": "-",
        "operator": "HMM",
        "owner": "-",
        "manager": "-",
        "current_port": "Unknown",
        "eta": "-",
        "ata": "-",
        "stay_days": 0,
        "opportunity_score": 10,
        "risk_score": 45,
        "confidence_score": 40,
        "priority_label": "LOW",
        "reason_summary": "HMM 선사는 현재 한국 항만에 13척이 확인되며, 영업대상 1척·즉시후보 0척이 포함됩니다. 30일 세척 수요 가능성은 44점이며 평균 바이오파울링 노출 30점, 평균 체선노출 5점입니다. Unknown에서 현재 항만 체류 중인 unknown으로, 출항도선 신호가 강하지 않습니다 · 연락 경로 단서가 있습니다.",
        "recommended_action": "선박 스케줄 확인",
        "data_sources": [
          "pilot_source_6"
        ]
      }
    },
    {
      "vessel_id": "CALL-그쉬",
      "master_vessel_id": "MASTER-CALLSIGN-그쉬",
      "port_call_id": "MASTER-PORTCALL-MASTER-CALLSIGN-그쉬-UNKNOWN-그쉬",
      "vessel_name": "NOBLE ACE",
      "imo": "-",
      "mmsi": "-",
      "call_sign": "그쉬",
      "port_code": "UNKNOWN",
      "port_name": "Unknown",
      "vessel_display": {
        "vessel_name": "NOBLE ACE",
        "imo": "-",
        "mmsi": "-",
        "call_sign": "그쉬",
        "flag": "-",
        "vessel_type": "Unknown",
        "gt": "-",
        "dwt": "-",
        "operator": "HYUNDAI GLOVIS",
        "owner": "-",
        "manager": "-",
        "current_port": "Unknown",
        "eta": "-",
        "ata": "-",
        "stay_days": 0,
        "opportunity_score": 9,
        "risk_score": 45,
        "confidence_score": 40,
        "priority_label": "LOW",
        "reason_summary": "Unknown에서 현재 항만 체류 중인 unknown으로, 출항도선 신호가 강하지 않습니다 · 연락 경로 단서가 있습니다.",
        "recommended_action": "선박 스케줄 확인",
        "data_sources": [
          "pilot_source_6"
        ]
      }
    },
    {
      "vessel_id": "CALL-미래",
      "master_vessel_id": "MASTER-CALLSIGN-미래",
      "port_call_id": "MASTER-PORTCALL-MASTER-CALLSIGN-미래-UNKNOWN-미래",
      "vessel_name": "KS ADONIS",
      "imo": "-",
      "mmsi": "-",
      "call_sign": "미래",
      "port_code": "UNKNOWN",
      "port_name": "Unknown",
      "vessel_display": {
        "vessel_name": "KS ADONIS",
        "imo": "-",
        "mmsi": "-",
        "call_sign": "미래",
        "flag": "-",
        "vessel_type": "Unknown",
        "gt": "-",
        "dwt": "-",
        "operator": "-",
        "owner": "-",
        "manager": "-",
        "current_port": "Unknown",
        "eta": "-",
        "ata": "-",
        "stay_days": 0,
        "opportunity_score": 7,
        "risk_score": 45,
        "confidence_score": 40,
        "priority_label": "LOW",
        "reason_summary": "Unknown에서 현재 항만 체류 중인 unknown으로, 출항도선 신호가 강하지 않습니다 · 연락 경로 단서가 있습니다.",
        "recommended_action": "운영선사 확인",
        "data_sources": [
          "pilot_source_6"
        ]
      }
    },
    {
      "vessel_id": "CALL-평마",
      "master_vessel_id": "MASTER-CALLSIGN-평마",
      "port_call_id": "MASTER-PORTCALL-MASTER-CALLSIGN-평마-UNKNOWN-평마",
      "vessel_name": "아시안 트러스트",
      "imo": "-",
      "mmsi": "-",
      "call_sign": "평마",
      "port_code": "UNKNOWN",
      "port_name": "Unknown",
      "vessel_display": {
        "vessel_name": "아시안 트러스트",
        "imo": "-",
        "mmsi": "-",
        "call_sign": "평마",
        "flag": "-",
        "vessel_type": "Unknown",
        "gt": "-",
        "dwt": "-",
        "operator": "-",
        "owner": "-",
        "manager": "-",
        "current_port": "Unknown",
        "eta": "-",
        "ata": "-",
        "stay_days": 0,
        "opportunity_score": 7,
        "risk_score": 45,
        "confidence_score": 40,
        "priority_label": "LOW",
        "reason_summary": "Unknown에서 현재 항만 체류 중인 unknown으로, 출항도선 신호가 강하지 않습니다 · 연락 경로 단서가 있습니다.",
        "recommended_action": "운영선사 확인",
        "data_sources": [
          "pilot_source_6"
        ]
      }
    },
    {
      "vessel_id": "CALL-070903",
      "master_vessel_id": "MASTER-CALLSIGN-070903",
      "port_call_id": "MASTER-PORTCALL-MASTER-CALLSIGN-070903-820-820-2026-020-070903",
      "vessel_name": "울산303호",
      "imo": "-",
      "mmsi": "-",
      "call_sign": "070903",
      "port_code": "820",
      "port_name": "Ulsan",
      "vessel_display": {
        "vessel_name": "울산303호",
        "imo": "-",
        "mmsi": "-",
        "call_sign": "070903",
        "flag": "-",
        "vessel_type": "견인용예선",
        "gt": 75,
        "dwt": "-",
        "operator": "-",
        "owner": "-",
        "manager": "-",
        "current_port": "Ulsan",
        "eta": "-",
        "ata": "2026-06-05T01:50:00+00:00",
        "stay_days": 0.2,
        "opportunity_score": 5,
        "risk_score": 45,
        "confidence_score": 66,
        "priority_label": "LOW",
        "reason_summary": "Ulsan 현중미포만의장안벽에서 현재 항만 체류 중인 excluded_small_craft으로, 출항도선 신호가 강하지 않습니다 · 연락 경로 단서가 있습니다.",
        "recommended_action": "ETA 48h 전 연락",
        "data_sources": [
          "merged_port_operation"
        ]
      }
    },
    {
      "vessel_id": "CALL-7KNG",
      "master_vessel_id": "MASTER-CALLSIGN-7KNG",
      "port_call_id": "MASTER-PORTCALL-MASTER-CALLSIGN-7KNG-820-820-2026-008-7KNG",
      "vessel_name": "유쇼 마루",
      "imo": "-",
      "mmsi": "-",
      "call_sign": "7KNG",
      "port_code": "820",
      "port_name": "Ulsan",
      "vessel_display": {
        "vessel_name": "유쇼 마루",
        "imo": "-",
        "mmsi": "-",
        "call_sign": "7KNG",
        "flag": "-",
        "vessel_type": "케미칼 운반선",
        "gt": 834,
        "dwt": "-",
        "operator": "-",
        "owner": "-",
        "manager": "-",
        "current_port": "Ulsan",
        "eta": "-",
        "ata": "2026-06-06T21:40:00+00:00",
        "stay_days": 3.6,
        "opportunity_score": 5,
        "risk_score": 45,
        "confidence_score": 66,
        "priority_label": "HOT",
        "reason_summary": "Ulsan 정일1부두에서 현재 항만 체류 중인 unknown으로, 출항도선 신호가 강하지 않습니다 · 연락 경로 단서가 있습니다.",
        "recommended_action": "운영선사 확인",
        "data_sources": [
          "merged_port_operation"
        ]
      }
    },
    {
      "vessel_id": "CALL-HOEQ",
      "master_vessel_id": "MASTER-CALLSIGN-HOEQ",
      "port_call_id": "MASTER-PORTCALL-MASTER-CALLSIGN-HOEQ-620-620-2026-002-HOEQ",
      "vessel_name": "팔콘 케미스트",
      "imo": "-",
      "mmsi": "-",
      "call_sign": "HOEQ",
      "port_code": "620",
      "port_name": "Yeosu",
      "vessel_display": {
        "vessel_name": "팔콘 케미스트",
        "imo": "-",
        "mmsi": "-",
        "call_sign": "HOEQ",
        "flag": "-",
        "vessel_type": "케미칼 운반선",
        "gt": 2993,
        "dwt": "-",
        "operator": "-",
        "owner": "-",
        "manager": "-",
        "current_port": "Yeosu",
        "eta": "-",
        "ata": "2026-06-05T22:40:00+00:00",
        "stay_days": 4.7,
        "opportunity_score": 5,
        "risk_score": 45,
        "confidence_score": 66,
        "priority_label": "HOT",
        "reason_summary": "Yeosu W구역에서 현재 항만 체류 중인 unknown으로, 출항도선 신호가 강하지 않습니다 · 연락 경로 단서가 있습니다.",
        "recommended_action": "ETA 48h 전 연락",
        "data_sources": [
          "merged_port_operation"
        ]
      }
    },
    {
      "vessel_id": "CALL-D8WQ",
      "master_vessel_id": "MASTER-CALLSIGN-D8WQ",
      "port_call_id": "MASTER-PORTCALL-MASTER-CALLSIGN-D8WQ-622-622-2026-013-D8WQ",
      "vessel_name": "대성7호",
      "imo": "-",
      "mmsi": "-",
      "call_sign": "D8WQ",
      "port_code": "622",
      "port_name": "South Gyeongsang",
      "vessel_display": {
        "vessel_name": "대성7호",
        "imo": "-",
        "mmsi": "-",
        "call_sign": "D8WQ",
        "flag": "-",
        "vessel_type": "견인용예선",
        "gt": 91,
        "dwt": "-",
        "operator": "-",
        "owner": "-",
        "manager": "-",
        "current_port": "South Gyeongsang",
        "eta": "-",
        "ata": "2026-06-06T01:45:00+00:00",
        "stay_days": 0.3,
        "opportunity_score": 5,
        "risk_score": 45,
        "confidence_score": 66,
        "priority_label": "LOW",
        "reason_summary": "South Gyeongsang 한화오션에코텍 전용부두에서 현재 항만 체류 중인 excluded_small_craft으로, 출항도선 신호가 강하지 않습니다 · 연락 경로 단서가 있습니다.",
        "recommended_action": "운영선사 확인",
        "data_sources": [
          "merged_port_operation"
        ]
      }
    },
    {
      "vessel_id": "CALL-BPMO9",
      "master_vessel_id": "MASTER-CALLSIGN-BPMO9",
      "port_call_id": "MASTER-PORTCALL-MASTER-CALLSIGN-BPMO9-UNKNOWN-BPMO9",
      "vessel_name": "CHANG HANG YUAN HAI",
      "imo": "-",
      "mmsi": "-",
      "call_sign": "BPMO9",
      "port_code": "UNKNOWN",
      "port_name": "Unknown",
      "vessel_display": {
        "vessel_name": "CHANG HANG YUAN HAI",
        "imo": "-",
        "mmsi": "-",
        "call_sign": "BPMO9",
        "flag": "-",
        "vessel_type": "Unknown",
        "gt": "-",
        "dwt": "-",
        "operator": "-",
        "owner": "-",
        "manager": "-",
        "current_port": "Unknown",
        "eta": "-",
        "ata": "-",
        "stay_days": 0,
        "opportunity_score": 2,
        "risk_score": 45,
        "confidence_score": 20,
        "priority_label": "LOW",
        "reason_summary": "Unknown에서 현재 항만 체류 중인 unknown으로, 출항도선 신호가 강하지 않습니다.",
        "recommended_action": "대리점 확인",
        "data_sources": [
          "mof_ais_dynamic"
        ]
      }
    },
    {
      "vessel_id": "CALL-0",
      "master_vessel_id": "MASTER-CALLSIGN-0",
      "port_call_id": "MASTER-PORTCALL-MASTER-CALLSIGN-0-UNKNOWN-0",
      "vessel_name": "HENIU127",
      "imo": "-",
      "mmsi": "-",
      "call_sign": "0",
      "port_code": "UNKNOWN",
      "port_name": "Unknown",
      "vessel_display": {
        "vessel_name": "HENIU127",
        "imo": "-",
        "mmsi": "-",
        "call_sign": "0",
        "flag": "-",
        "vessel_type": "Unknown",
        "gt": "-",
        "dwt": "-",
        "operator": "-",
        "owner": "-",
        "manager": "-",
        "current_port": "Unknown",
        "eta": "-",
        "ata": "-",
        "stay_days": 0,
        "opportunity_score": 2,
        "risk_score": 45,
        "confidence_score": 20,
        "priority_label": "LOW",
        "reason_summary": "Unknown에서 현재 항만 체류 중인 unknown으로, 출항도선 신호가 강하지 않습니다.",
        "recommended_action": "대리점 확인",
        "data_sources": [
          "mof_ais_dynamic"
        ]
      }
    },
    {
      "vessel_id": "CALL-BPKY3",
      "master_vessel_id": "MASTER-CALLSIGN-BPKY3",
      "port_call_id": "MASTER-PORTCALL-MASTER-CALLSIGN-BPKY3-UNKNOWN-BPKY3",
      "vessel_name": "BPKY3",
      "imo": "-",
      "mmsi": "-",
      "call_sign": "BPKY3",
      "port_code": "UNKNOWN",
      "port_name": "Unknown",
      "vessel_display": {
        "vessel_name": "BPKY3",
        "imo": "-",
        "mmsi": "-",
        "call_sign": "BPKY3",
        "flag": "-",
        "vessel_type": "Unknown",
        "gt": "-",
        "dwt": "-",
        "operator": "-",
        "owner": "-",
        "manager": "-",
        "current_port": "Unknown",
        "eta": "-",
        "ata": "-",
        "stay_days": 0,
        "opportunity_score": 2,
        "risk_score": 45,
        "confidence_score": 20,
        "priority_label": "LOW",
        "reason_summary": "Unknown에서 현재 항만 체류 중인 unknown으로, 출항도선 신호가 강하지 않습니다.",
        "recommended_action": "대리점 확인",
        "data_sources": [
          "mof_ais_dynamic"
        ]
      }
    },
    {
      "vessel_id": "CALL-3008",
      "master_vessel_id": "MASTER-CALLSIGN-3008",
      "port_call_id": "MASTER-PORTCALL-MASTER-CALLSIGN-3008-UNKNOWN-3008",
      "vessel_name": "3008",
      "imo": "-",
      "mmsi": "-",
      "call_sign": "3008",
      "port_code": "UNKNOWN",
      "port_name": "Unknown",
      "vessel_display": {
        "vessel_name": "3008",
        "imo": "-",
        "mmsi": "-",
        "call_sign": "3008",
        "flag": "-",
        "vessel_type": "Unknown",
        "gt": "-",
        "dwt": "-",
        "operator": "-",
        "owner": "-",
        "manager": "-",
        "current_port": "Unknown",
        "eta": "-",
        "ata": "-",
        "stay_days": 0,
        "opportunity_score": 2,
        "risk_score": 45,
        "confidence_score": 20,
        "priority_label": "LOW",
        "reason_summary": "Unknown에서 현재 항만 체류 중인 unknown으로, 출항도선 신호가 강하지 않습니다.",
        "recommended_action": "대리점 확인",
        "data_sources": [
          "mof_ais_dynamic"
        ]
      }
    },
    {
      "vessel_id": "CALL-JD5352",
      "master_vessel_id": "MASTER-CALLSIGN-JD5352",
      "port_call_id": "MASTER-PORTCALL-MASTER-CALLSIGN-JD5352-UNKNOWN-JD5352",
      "vessel_name": "HKL AOBA",
      "imo": "-",
      "mmsi": "-",
      "call_sign": "JD5352",
      "port_code": "UNKNOWN",
      "port_name": "Unknown",
      "vessel_display": {
        "vessel_name": "HKL AOBA",
        "imo": "-",
        "mmsi": "-",
        "call_sign": "JD5352",
        "flag": "-",
        "vessel_type": "Unknown",
        "gt": "-",
        "dwt": "-",
        "operator": "-",
        "owner": "-",
        "manager": "-",
        "current_port": "Unknown",
        "eta": "-",
        "ata": "-",
        "stay_days": 0,
        "opportunity_score": 2,
        "risk_score": 45,
        "confidence_score": 20,
        "priority_label": "LOW",
        "reason_summary": "Unknown에서 현재 항만 체류 중인 unknown으로, 출항도선 신호가 강하지 않습니다.",
        "recommended_action": "대리점 확인",
        "data_sources": [
          "mof_ais_dynamic"
        ]
      }
    },
    {
      "vessel_id": "CALL-8866",
      "master_vessel_id": "MASTER-CALLSIGN-8866",
      "port_call_id": "MASTER-PORTCALL-MASTER-CALLSIGN-8866-UNKNOWN-8866",
      "vessel_name": "8866",
      "imo": "-",
      "mmsi": "-",
      "call_sign": "8866",
      "port_code": "UNKNOWN",
      "port_name": "Unknown",
      "vessel_display": {
        "vessel_name": "8866",
        "imo": "-",
        "mmsi": "-",
        "call_sign": "8866",
        "flag": "-",
        "vessel_type": "Unknown",
        "gt": "-",
        "dwt": "-",
        "operator": "-",
        "owner": "-",
        "manager": "-",
        "current_port": "Unknown",
        "eta": "-",
        "ata": "-",
        "stay_days": 0,
        "opportunity_score": 2,
        "risk_score": 45,
        "confidence_score": 20,
        "priority_label": "LOW",
        "reason_summary": "Unknown에서 현재 항만 체류 중인 unknown으로, 출항도선 신호가 강하지 않습니다.",
        "recommended_action": "대리점 확인",
        "data_sources": [
          "mof_ais_dynamic"
        ]
      }
    }
  ]
}
