{
  "schema_version": "1.0",
  "generated_at": "2026-06-04T09:05:56.883Z",
  "data_mode": "live",
  "page": 51,
  "page_size": 30,
  "total_count": 1514,
  "total_pages": 51,
  "items": [
    {
      "vessel_id": "CALL-BZZA9",
      "master_vessel_id": "MASTER-CALLSIGN-BZZA9",
      "port_call_id": "MASTER-PORTCALL-MASTER-CALLSIGN-BZZA9-020-020-2026-002-BZZA9",
      "vessel_name": "LU RU YUAN YU 669",
      "imo": "",
      "mmsi": "",
      "call_sign": "BZZA9",
      "port_code": "020",
      "port_name": "Busan",
      "vessel_display": {
        "vessel_name": "LU RU YUAN YU 669",
        "imo": "-",
        "mmsi": "-",
        "call_sign": "BZZA9",
        "flag": "-",
        "vessel_type": "원양 어선",
        "gt": 332,
        "dwt": 0,
        "operator": "-",
        "company": "(주)피스코마린",
        "owner": "-",
        "manager": "-",
        "technical_manager": "-",
        "current_port": "Busan",
        "eta": "2026-06-04T09:48:00.000Z",
        "etb": "-",
        "ata": "2026-06-01 08:30:00+09:00",
        "atb": "-",
        "stay_days": 0.4,
        "last_seen_at": "2026-06-04T09:02:18.513Z",
        "data_source": "Merged Port Operation port call",
        "confidence_score": 74,
        "opportunity_score": 6,
        "risk_score": 45,
        "contact_readiness_score": 35,
        "priority_label": "LOW",
        "reason_summary": "Busan 감천 3부두 1선석에서 현재 항만 체류 중인 excluded_small_craft으로, 출항도선 신호가 강하지 않습니다 · 연락 경로 단서가 있습니다.",
        "recommended_action": "ETA 48h 전 연락",
        "data_sources": [
          "Merged Port Operation port call",
          "merged_port_operation",
          "real_public_api_snapshot",
          "port_operation",
          "grtg"
        ]
      }
    },
    {
      "vessel_id": "CALL-BBLZ5",
      "master_vessel_id": "MASTER-CALLSIGN-BBLZ5",
      "port_call_id": "MASTER-PORTCALL-MASTER-CALLSIGN-BBLZ5-020-020-2026-001-BBLZ5",
      "vessel_name": "LU WEI YUAN YU 655",
      "imo": "",
      "mmsi": "",
      "call_sign": "BBLZ5",
      "port_code": "020",
      "port_name": "Busan",
      "vessel_display": {
        "vessel_name": "LU WEI YUAN YU 655",
        "imo": "-",
        "mmsi": "-",
        "call_sign": "BBLZ5",
        "flag": "-",
        "vessel_type": "원양 어선",
        "gt": 316,
        "dwt": 0,
        "operator": "-",
        "company": "(주)피스코마린",
        "owner": "-",
        "manager": "-",
        "technical_manager": "-",
        "current_port": "Busan",
        "eta": "2026-06-04T10:24:00.000Z",
        "etb": "-",
        "ata": "2026-06-01 12:45:00+09:00",
        "atb": "-",
        "stay_days": 0.3,
        "last_seen_at": "2026-06-04T09:02:18.513Z",
        "data_source": "Merged Port Operation port call",
        "confidence_score": 74,
        "opportunity_score": 6,
        "risk_score": 45,
        "contact_readiness_score": 35,
        "priority_label": "LOW",
        "reason_summary": "Busan 감천 3부두 1선석에서 현재 항만 체류 중인 excluded_small_craft으로, 출항도선 신호가 강하지 않습니다 · 연락 경로 단서가 있습니다.",
        "recommended_action": "ETA 48h 전 연락",
        "data_sources": [
          "Merged Port Operation port call",
          "merged_port_operation",
          "real_public_api_snapshot",
          "port_operation",
          "grtg"
        ]
      }
    },
    {
      "vessel_id": "CALL-DSGR",
      "master_vessel_id": "MASTER-CALLSIGN-DSGR",
      "port_call_id": "MASTER-PORTCALL-MASTER-CALLSIGN-DSGR-020-020-2026-031-DSGR",
      "vessel_name": "202고려호",
      "imo": "",
      "mmsi": "",
      "call_sign": "DSGR",
      "port_code": "020",
      "port_name": "Busan",
      "vessel_display": {
        "vessel_name": "202고려호",
        "imo": "-",
        "mmsi": "-",
        "call_sign": "DSGR",
        "flag": "-",
        "vessel_type": "견인용예선",
        "gt": 72,
        "dwt": 0,
        "operator": "-",
        "company": "고려선박(주)",
        "owner": "-",
        "manager": "-",
        "technical_manager": "-",
        "current_port": "Busan",
        "eta": "2026-06-01T10:30:00.000Z",
        "etb": "-",
        "ata": "2026-06-01 14:00:00+09:00",
        "atb": "-",
        "stay_days": 0.1,
        "last_seen_at": "2026-06-04T09:02:18.513Z",
        "data_source": "Merged Port Operation port call",
        "confidence_score": 66,
        "opportunity_score": 5,
        "risk_score": 45,
        "contact_readiness_score": 35,
        "priority_label": "LOW",
        "reason_summary": "Busan 자성대부두 65선석에서 현재 항만 체류 중인 excluded_small_craft으로, 출항도선 신호가 강하지 않습니다 · 연락 경로 단서가 있습니다.",
        "recommended_action": "운영선사 확인",
        "data_sources": [
          "Merged Port Operation port call",
          "merged_port_operation",
          "real_public_api_snapshot",
          "port_operation",
          "grtg"
        ]
      }
    },
    {
      "vessel_id": "CALL-969094",
      "master_vessel_id": "MASTER-CALLSIGN-969094",
      "port_call_id": "MASTER-PORTCALL-MASTER-CALLSIGN-969094-020-020-2026-012-969094",
      "vessel_name": "303종영",
      "imo": "",
      "mmsi": "",
      "call_sign": "969094",
      "port_code": "020",
      "port_name": "Busan",
      "vessel_display": {
        "vessel_name": "303종영",
        "imo": "-",
        "mmsi": "-",
        "call_sign": "969094",
        "flag": "-",
        "vessel_type": "견인용예선",
        "gt": 113,
        "dwt": 0,
        "operator": "-",
        "company": "종영산업",
        "owner": "-",
        "manager": "-",
        "technical_manager": "-",
        "current_port": "Busan",
        "eta": "2026-06-02T03:30:00.000Z",
        "etb": "-",
        "ata": "2026-06-02 11:45:00+09:00",
        "atb": "-",
        "stay_days": 0,
        "last_seen_at": "2026-06-04T09:02:18.513Z",
        "data_source": "Merged Port Operation port call",
        "confidence_score": 66,
        "opportunity_score": 5,
        "risk_score": 45,
        "contact_readiness_score": 35,
        "priority_label": "LOW",
        "reason_summary": "Busan 선기조합-11(송린)에서 현재 항만 체류 중인 excluded_small_craft으로, 출항도선 신호가 강하지 않습니다 · 연락 경로 단서가 있습니다.",
        "recommended_action": "운영선사 확인",
        "data_sources": [
          "Merged Port Operation port call",
          "merged_port_operation",
          "real_public_api_snapshot",
          "port_operation",
          "grtg"
        ]
      }
    },
    {
      "vessel_id": "CALL-922068",
      "master_vessel_id": "MASTER-CALLSIGN-922068",
      "port_call_id": "MASTER-PORTCALL-MASTER-CALLSIGN-922068-020-020-2026-050-922068",
      "vessel_name": "금오티5호",
      "imo": "",
      "mmsi": "",
      "call_sign": "922068",
      "port_code": "020",
      "port_name": "Busan",
      "vessel_display": {
        "vessel_name": "금오티5호",
        "imo": "-",
        "mmsi": "-",
        "call_sign": "922068",
        "flag": "-",
        "vessel_type": "견인용예선",
        "gt": 59,
        "dwt": 0,
        "operator": "-",
        "company": "금오로지스 주식회사",
        "owner": "-",
        "manager": "-",
        "technical_manager": "-",
        "current_port": "Busan",
        "eta": "2026-06-03T18:00:00.000Z",
        "etb": "-",
        "ata": "2026-06-03 16:35:00+09:00",
        "atb": "-",
        "stay_days": 0.3,
        "last_seen_at": "2026-06-04T09:02:18.513Z",
        "data_source": "Merged Port Operation port call",
        "confidence_score": 66,
        "opportunity_score": 5,
        "risk_score": 45,
        "contact_readiness_score": 35,
        "priority_label": "LOW",
        "reason_summary": "Busan 선기조합-07(선보)에서 현재 항만 체류 중인 excluded_small_craft으로, 출항도선 신호가 강하지 않습니다 · 연락 경로 단서가 있습니다.",
        "recommended_action": "운영선사 확인",
        "data_sources": [
          "Merged Port Operation port call",
          "merged_port_operation",
          "real_public_api_snapshot",
          "port_operation",
          "grtg"
        ]
      }
    },
    {
      "vessel_id": "CALL-7KNG",
      "master_vessel_id": "MASTER-CALLSIGN-7KNG",
      "port_call_id": "MASTER-PORTCALL-MASTER-CALLSIGN-7KNG-820-820-2026-007-7KNG",
      "vessel_name": "유쇼 마루",
      "imo": "",
      "mmsi": "",
      "call_sign": "7KNG",
      "port_code": "820",
      "port_name": "Ulsan",
      "vessel_display": {
        "vessel_name": "유쇼 마루",
        "imo": "-",
        "mmsi": "-",
        "call_sign": "7KNG",
        "flag": "-",
        "vessel_type": "케미칼 운반선",
        "gt": 834,
        "dwt": 0,
        "operator": "-",
        "company": "우일해운(주)",
        "owner": "-",
        "manager": "-",
        "technical_manager": "-",
        "current_port": "Ulsan",
        "eta": "2026-06-06T10:00:00.000Z",
        "etb": "-",
        "ata": "2026-06-03 07:15:00+09:00",
        "atb": "-",
        "stay_days": 2.2,
        "last_seen_at": "2026-06-04T09:02:18.513Z",
        "data_source": "Merged Port Operation port call",
        "confidence_score": 66,
        "opportunity_score": 5,
        "risk_score": 45,
        "contact_readiness_score": 35,
        "priority_label": "LOW",
        "reason_summary": "Ulsan 정일1부두에서 현재 항만 체류 중인 unknown으로, 출항도선 신호가 강하지 않습니다 · 연락 경로 단서가 있습니다.",
        "recommended_action": "운영선사 확인",
        "data_sources": [
          "Merged Port Operation port call",
          "merged_port_operation",
          "real_public_api_snapshot",
          "port_operation",
          "grtg"
        ]
      }
    },
    {
      "vessel_id": "CALL-062720",
      "master_vessel_id": "MASTER-CALLSIGN-062720",
      "port_call_id": "MASTER-PORTCALL-MASTER-CALLSIGN-062720-031-031-2026-025-062720",
      "vessel_name": "삼성5호",
      "imo": "",
      "mmsi": "",
      "call_sign": "062720",
      "port_code": "031",
      "port_name": "Pyeongtaek-Dangjin",
      "vessel_display": {
        "vessel_name": "삼성5호",
        "imo": "-",
        "mmsi": "-",
        "call_sign": "062720",
        "flag": "-",
        "vessel_type": "기타 예선",
        "gt": 22,
        "dwt": 0,
        "operator": "-",
        "company": "삼성5호",
        "owner": "-",
        "manager": "-",
        "technical_manager": "-",
        "current_port": "Pyeongtaek-Dangjin",
        "eta": "2026-05-31T23:00:00.000Z",
        "etb": "-",
        "ata": "2026-06-01 04:00:00+09:00",
        "atb": "-",
        "stay_days": 0,
        "last_seen_at": "2026-06-04T09:02:18.513Z",
        "data_source": "Merged Port Operation port call",
        "confidence_score": 66,
        "opportunity_score": 5,
        "risk_score": 45,
        "contact_readiness_score": 35,
        "priority_label": "LOW",
        "reason_summary": "Pyeongtaek-Dangjin 고대부두 1번선석에서 현재 항만 체류 중인 excluded_small_craft으로, 출항도선 신호가 강하지 않습니다 · 연락 경로 단서가 있습니다.",
        "recommended_action": "운영선사 확인",
        "data_sources": [
          "Merged Port Operation port call",
          "merged_port_operation",
          "real_public_api_snapshot",
          "port_operation",
          "grtg"
        ]
      }
    },
    {
      "vessel_id": "CALL-440041190",
      "master_vessel_id": "MASTER-CALLSIGN-440041190",
      "port_call_id": "MASTER-PORTCALL-MASTER-CALLSIGN-440041190-031-031-2026-005-440041190",
      "vessel_name": "오션대산호",
      "imo": "",
      "mmsi": "",
      "call_sign": "440041190",
      "port_code": "031",
      "port_name": "Pyeongtaek-Dangjin",
      "vessel_display": {
        "vessel_name": "오션대산호",
        "imo": "-",
        "mmsi": "-",
        "call_sign": "440041190",
        "flag": "-",
        "vessel_type": "용달선",
        "gt": 18,
        "dwt": 0,
        "operator": "-",
        "company": "서울마린(주)",
        "owner": "-",
        "manager": "-",
        "technical_manager": "-",
        "current_port": "Pyeongtaek-Dangjin",
        "eta": "2026-06-03T07:40:00.000Z",
        "etb": "-",
        "ata": "2026-06-03 14:05:00+09:00",
        "atb": "-",
        "stay_days": 0.7,
        "last_seen_at": "2026-06-04T09:02:18.513Z",
        "data_source": "Merged Port Operation port call",
        "confidence_score": 66,
        "opportunity_score": 5,
        "risk_score": 45,
        "contact_readiness_score": 35,
        "priority_label": "LOW",
        "reason_summary": "Pyeongtaek-Dangjin 원정리 부잔교에서 현재 항만 체류 중인 unknown으로, 출항도선 신호가 강하지 않습니다 · 연락 경로 단서가 있습니다.",
        "recommended_action": "운영선사 확인",
        "data_sources": [
          "Merged Port Operation port call",
          "merged_port_operation",
          "real_public_api_snapshot",
          "port_operation",
          "grtg"
        ]
      }
    },
    {
      "vessel_id": "CALL-131827",
      "master_vessel_id": "MASTER-CALLSIGN-131827",
      "port_call_id": "MASTER-PORTCALL-MASTER-CALLSIGN-131827-030-030-2026-011-131827",
      "vessel_name": "광진107호",
      "imo": "",
      "mmsi": "",
      "call_sign": "131827",
      "port_code": "030",
      "port_name": "Incheon",
      "vessel_display": {
        "vessel_name": "광진107호",
        "imo": "-",
        "mmsi": "-",
        "call_sign": "131827",
        "flag": "-",
        "vessel_type": "기타 예선",
        "gt": 221,
        "dwt": 0,
        "operator": "-",
        "company": "(주)재성해운",
        "owner": "-",
        "manager": "-",
        "technical_manager": "-",
        "current_port": "Incheon",
        "eta": "2026-06-04T09:00:00.000Z",
        "etb": "-",
        "ata": "2026-06-01 17:50:00+09:00",
        "atb": "-",
        "stay_days": 0.5,
        "last_seen_at": "2026-06-04T09:02:18.513Z",
        "data_source": "Merged Port Operation port call",
        "confidence_score": 66,
        "opportunity_score": 5,
        "risk_score": 45,
        "contact_readiness_score": 35,
        "priority_label": "LOW",
        "reason_summary": "Incheon 북항 동원로엑스부두 3선석에서 현재 항만 체류 중인 excluded_small_craft으로, 출항도선 신호가 강하지 않습니다 · 연락 경로 단서가 있습니다.",
        "recommended_action": "운영선사 확인",
        "data_sources": [
          "Merged Port Operation port call",
          "merged_port_operation",
          "real_public_api_snapshot",
          "port_operation",
          "grtg"
        ]
      }
    },
    {
      "vessel_id": "CALL-107211",
      "master_vessel_id": "MASTER-CALLSIGN-107211",
      "port_call_id": "MASTER-PORTCALL-MASTER-CALLSIGN-107211-810-810-2026-007-107211",
      "vessel_name": "동방챌린저호",
      "imo": "",
      "mmsi": "",
      "call_sign": "107211",
      "port_code": "810",
      "port_name": "Pohang",
      "vessel_display": {
        "vessel_name": "동방챌린저호",
        "imo": "-",
        "mmsi": "-",
        "call_sign": "107211",
        "flag": "-",
        "vessel_type": "철강재 운반선",
        "gt": 3812,
        "dwt": 0,
        "operator": "-",
        "company": "경진해운(주)",
        "owner": "-",
        "manager": "-",
        "technical_manager": "-",
        "current_port": "Pohang",
        "eta": "2026-06-01T19:00:00.000Z",
        "etb": "-",
        "ata": "2026-06-01 09:00:00+09:00",
        "atb": "-",
        "stay_days": 0.3,
        "last_seen_at": "2026-06-04T09:02:18.513Z",
        "data_source": "Merged Port Operation port call",
        "confidence_score": 66,
        "opportunity_score": 5,
        "risk_score": 45,
        "contact_readiness_score": 35,
        "priority_label": "LOW",
        "reason_summary": "Pohang 철재부두 1선석에서 현재 항만 체류 중인 unknown으로, 출항도선 신호가 강하지 않습니다 · 연락 경로 단서가 있습니다.",
        "recommended_action": "운영선사 확인",
        "data_sources": [
          "Merged Port Operation port call",
          "merged_port_operation",
          "real_public_api_snapshot",
          "port_operation",
          "grtg"
        ]
      }
    },
    {
      "vessel_id": "CALL-944311",
      "master_vessel_id": "MASTER-CALLSIGN-944311",
      "port_call_id": "MASTER-PORTCALL-MASTER-CALLSIGN-944311-810-810-2026-011-944311",
      "vessel_name": "명진501호",
      "imo": "",
      "mmsi": "",
      "call_sign": "944311",
      "port_code": "810",
      "port_name": "Pohang",
      "vessel_display": {
        "vessel_name": "명진501호",
        "imo": "-",
        "mmsi": "-",
        "call_sign": "944311",
        "flag": "-",
        "vessel_type": "견인용예선",
        "gt": 128,
        "dwt": 0,
        "operator": "-",
        "company": "명진선박(주)",
        "owner": "-",
        "manager": "-",
        "technical_manager": "-",
        "current_port": "Pohang",
        "eta": "2026-06-02T07:05:00.000Z",
        "etb": "-",
        "ata": "2026-06-02 12:40:00+09:00",
        "atb": "-",
        "stay_days": 0.1,
        "last_seen_at": "2026-06-04T09:02:18.513Z",
        "data_source": "Merged Port Operation port call",
        "confidence_score": 66,
        "opportunity_score": 5,
        "risk_score": 45,
        "contact_readiness_score": 35,
        "priority_label": "LOW",
        "reason_summary": "Pohang 제5부두 58선석(TOC)에서 현재 항만 체류 중인 excluded_small_craft으로, 출항도선 신호가 강하지 않습니다 · 연락 경로 단서가 있습니다.",
        "recommended_action": "운영선사 확인",
        "data_sources": [
          "Merged Port Operation port call",
          "merged_port_operation",
          "real_public_api_snapshot",
          "port_operation",
          "grtg"
        ]
      }
    },
    {
      "vessel_id": "CALL-DSQJ8",
      "master_vessel_id": "MASTER-CALLSIGN-DSQJ8",
      "port_call_id": "MASTER-PORTCALL-MASTER-CALLSIGN-DSQJ8-810-810-2026-002-DSQJ8",
      "vessel_name": "재원3호",
      "imo": "",
      "mmsi": "",
      "call_sign": "DSQJ8",
      "port_code": "810",
      "port_name": "Pohang",
      "vessel_display": {
        "vessel_name": "재원3호",
        "imo": "-",
        "mmsi": "-",
        "call_sign": "DSQJ8",
        "flag": "-",
        "vessel_type": "견인용예선",
        "gt": 499,
        "dwt": 0,
        "operator": "-",
        "company": "에스앤피해운(주)",
        "owner": "-",
        "manager": "-",
        "technical_manager": "-",
        "current_port": "Pohang",
        "eta": "2026-06-07T09:30:00.000Z",
        "etb": "-",
        "ata": "2026-06-04 08:00:00+09:00",
        "atb": "-",
        "stay_days": 0.4,
        "last_seen_at": "2026-06-04T09:02:18.513Z",
        "data_source": "Merged Port Operation port call",
        "confidence_score": 66,
        "opportunity_score": 5,
        "risk_score": 45,
        "contact_readiness_score": 35,
        "priority_label": "LOW",
        "reason_summary": "Pohang 제5부두 56선석(TOC)에서 현재 항만 체류 중인 excluded_small_craft으로, 출항도선 신호가 강하지 않습니다 · 연락 경로 단서가 있습니다.",
        "recommended_action": "운영선사 확인",
        "data_sources": [
          "Merged Port Operation port call",
          "merged_port_operation",
          "real_public_api_snapshot",
          "port_operation",
          "grtg"
        ]
      }
    },
    {
      "vessel_id": "CALL-250037",
      "master_vessel_id": "MASTER-CALLSIGN-250037",
      "port_call_id": "MASTER-PORTCALL-MASTER-CALLSIGN-250037-622-622-2026-008-250037",
      "vessel_name": "강남티-25호",
      "imo": "",
      "mmsi": "",
      "call_sign": "250037",
      "port_code": "622",
      "port_name": "South Gyeongsang",
      "vessel_display": {
        "vessel_name": "강남티-25호",
        "imo": "-",
        "mmsi": "-",
        "call_sign": "250037",
        "flag": "-",
        "vessel_type": "견인용예선",
        "gt": 253,
        "dwt": 0,
        "operator": "-",
        "company": "(주)강남선박",
        "owner": "-",
        "manager": "-",
        "technical_manager": "-",
        "current_port": "South Gyeongsang",
        "eta": "2026-06-03T11:00:00.000Z",
        "etb": "-",
        "ata": "2026-06-02 09:05:00+09:00",
        "atb": "-",
        "stay_days": 0.2,
        "last_seen_at": "2026-06-04T09:02:18.513Z",
        "data_source": "Merged Port Operation port call",
        "confidence_score": 66,
        "opportunity_score": 5,
        "risk_score": 45,
        "contact_readiness_score": 35,
        "priority_label": "LOW",
        "reason_summary": "South Gyeongsang 컨테이너부두3단계2차 7K선석에서 현재 항만 체류 중인 excluded_small_craft으로, 출항도선 신호가 강하지 않습니다 · 연락 경로 단서가 있습니다.",
        "recommended_action": "운영선사 확인",
        "data_sources": [
          "Merged Port Operation port call",
          "merged_port_operation",
          "real_public_api_snapshot",
          "port_operation",
          "grtg"
        ]
      }
    },
    {
      "vessel_id": "CALL-100933",
      "master_vessel_id": "MASTER-CALLSIGN-100933",
      "port_call_id": "MASTER-PORTCALL-MASTER-CALLSIGN-100933-622-622-2026-007-100933",
      "vessel_name": "대성101호",
      "imo": "",
      "mmsi": "",
      "call_sign": "100933",
      "port_code": "622",
      "port_name": "South Gyeongsang",
      "vessel_display": {
        "vessel_name": "대성101호",
        "imo": "-",
        "mmsi": "-",
        "call_sign": "100933",
        "flag": "-",
        "vessel_type": "기타 예선",
        "gt": 124,
        "dwt": 0,
        "operator": "-",
        "company": "(주)대성해운",
        "owner": "-",
        "manager": "-",
        "technical_manager": "-",
        "current_port": "South Gyeongsang",
        "eta": "2026-06-03T17:00:00.000Z",
        "etb": "-",
        "ata": "2026-06-03 04:20:00+09:00",
        "atb": "-",
        "stay_days": 0.4,
        "last_seen_at": "2026-06-04T09:02:18.513Z",
        "data_source": "Merged Port Operation port call",
        "confidence_score": 66,
        "opportunity_score": 5,
        "risk_score": 45,
        "contact_readiness_score": 35,
        "priority_label": "LOW",
        "reason_summary": "South Gyeongsang 한화오션에코텍 전용부두에서 현재 항만 체류 중인 excluded_small_craft으로, 출항도선 신호가 강하지 않습니다 · 연락 경로 단서가 있습니다.",
        "recommended_action": "운영선사 확인",
        "data_sources": [
          "Merged Port Operation port call",
          "merged_port_operation",
          "real_public_api_snapshot",
          "port_operation",
          "grtg"
        ]
      }
    }
  ]
}