{
  "schema_version": "1.0",
  "generated_at": "2026-06-04T04:48:59.056Z",
  "data_mode": "live",
  "page": 48,
  "page_size": 30,
  "total_count": 1415,
  "total_pages": 48,
  "items": [
    {
      "vessel_id": "CALL-440041190",
      "master_vessel_id": "MASTER-CALLSIGN-440041190",
      "port_call_id": "MASTER-PORTCALL-MASTER-CALLSIGN-440041190-031-031-2026-005-440041190",
      "vessel_name": "오션대산호",
      "imo": "",
      "mmsi": "",
      "call_sign": "440041190",
      "port_code": "031",
      "port_name": "Pyeongtaek-Dangjin",
      "vessel_display": {
        "vessel_name": "오션대산호",
        "imo": "-",
        "mmsi": "-",
        "call_sign": "440041190",
        "flag": "-",
        "vessel_type": "용달선",
        "gt": 18,
        "dwt": 0,
        "operator": "-",
        "company": "서울마린(주)",
        "owner": "-",
        "manager": "-",
        "technical_manager": "-",
        "current_port": "Pyeongtaek-Dangjin",
        "eta": "2026-06-03T07:40:00.000Z",
        "etb": "-",
        "ata": "2026-06-03 14:05:00+09:00",
        "atb": "-",
        "stay_days": 0.7,
        "last_seen_at": "2026-06-04T04:45:37.528Z",
        "data_source": "Merged Port Operation port call",
        "confidence_score": 66,
        "opportunity_score": 5,
        "risk_score": 45,
        "contact_readiness_score": 35,
        "priority_label": "LOW",
        "reason_summary": "Pyeongtaek-Dangjin 원정리 부잔교에서 현재 항만 체류 중인 unknown으로, 출항도선 신호가 강하지 않습니다 · 연락 경로 단서가 있습니다.",
        "recommended_action": "운영선사 확인",
        "data_sources": [
          "Merged Port Operation port call",
          "port_operation_pyeongtaek_dangjin_i",
          "merged_port_operation",
          "real_public_api_snapshot",
          "port_operation",
          "grtg"
        ]
      }
    },
    {
      "vessel_id": "CALL-131827",
      "master_vessel_id": "MASTER-CALLSIGN-131827",
      "port_call_id": "MASTER-PORTCALL-MASTER-CALLSIGN-131827-030-030-2026-011-131827",
      "vessel_name": "광진107호",
      "imo": "",
      "mmsi": "",
      "call_sign": "131827",
      "port_code": "030",
      "port_name": "Incheon",
      "vessel_display": {
        "vessel_name": "광진107호",
        "imo": "-",
        "mmsi": "-",
        "call_sign": "131827",
        "flag": "-",
        "vessel_type": "기타 예선",
        "gt": 221,
        "dwt": 0,
        "operator": "-",
        "company": "(주)재성해운",
        "owner": "-",
        "manager": "-",
        "technical_manager": "-",
        "current_port": "Incheon",
        "eta": "2026-06-04T09:00:00.000Z",
        "etb": "-",
        "ata": "2026-06-01 17:50:00+09:00",
        "atb": "-",
        "stay_days": 0.5,
        "last_seen_at": "2026-06-04T04:45:37.528Z",
        "data_source": "Merged Port Operation port call",
        "confidence_score": 66,
        "opportunity_score": 5,
        "risk_score": 45,
        "contact_readiness_score": 35,
        "priority_label": "monitor",
        "reason_summary": "Incheon 북항 동원로엑스부두 3선석에서 현재 항만 체류 중인 excluded_small_craft으로, 출항도선 신호가 강하지 않습니다 · 연락 경로 단서가 있습니다.",
        "recommended_action": "ETA 48h 전 연락",
        "data_sources": [
          "Merged Port Operation port call",
          "merged_port_operation",
          "real_public_api_snapshot",
          "port_operation",
          "grtg"
        ]
      }
    },
    {
      "vessel_id": "CALL-107211",
      "master_vessel_id": "MASTER-CALLSIGN-107211",
      "port_call_id": "MASTER-PORTCALL-MASTER-CALLSIGN-107211-810-810-2026-007-107211",
      "vessel_name": "동방챌린저호",
      "imo": "",
      "mmsi": "",
      "call_sign": "107211",
      "port_code": "810",
      "port_name": "Pohang",
      "vessel_display": {
        "vessel_name": "동방챌린저호",
        "imo": "-",
        "mmsi": "-",
        "call_sign": "107211",
        "flag": "-",
        "vessel_type": "철강재 운반선",
        "gt": 3812,
        "dwt": 0,
        "operator": "-",
        "company": "경진해운(주)",
        "owner": "-",
        "manager": "-",
        "technical_manager": "-",
        "current_port": "Pohang",
        "eta": "2026-06-01T19:00:00.000Z",
        "etb": "-",
        "ata": "2026-06-01 09:00:00+09:00",
        "atb": "-",
        "stay_days": 0.3,
        "last_seen_at": "2026-06-04T04:45:37.528Z",
        "data_source": "Merged Port Operation port call",
        "confidence_score": 66,
        "opportunity_score": 5,
        "risk_score": 45,
        "contact_readiness_score": 35,
        "priority_label": "LOW",
        "reason_summary": "Pohang 철재부두 1선석에서 현재 항만 체류 중인 unknown으로, 출항도선 신호가 강하지 않습니다 · 연락 경로 단서가 있습니다.",
        "recommended_action": "운영선사 확인",
        "data_sources": [
          "Merged Port Operation port call",
          "merged_port_operation",
          "real_public_api_snapshot",
          "port_operation",
          "grtg"
        ]
      }
    },
    {
      "vessel_id": "CALL-944311",
      "master_vessel_id": "MASTER-CALLSIGN-944311",
      "port_call_id": "MASTER-PORTCALL-MASTER-CALLSIGN-944311-810-810-2026-011-944311",
      "vessel_name": "명진501호",
      "imo": "",
      "mmsi": "",
      "call_sign": "944311",
      "port_code": "810",
      "port_name": "Pohang",
      "vessel_display": {
        "vessel_name": "명진501호",
        "imo": "-",
        "mmsi": "-",
        "call_sign": "944311",
        "flag": "-",
        "vessel_type": "견인용예선",
        "gt": 128,
        "dwt": 0,
        "operator": "-",
        "company": "명진선박(주)",
        "owner": "-",
        "manager": "-",
        "technical_manager": "-",
        "current_port": "Pohang",
        "eta": "2026-06-02T07:05:00.000Z",
        "etb": "-",
        "ata": "2026-06-02 12:40:00+09:00",
        "atb": "-",
        "stay_days": 0.1,
        "last_seen_at": "2026-06-04T04:45:37.528Z",
        "data_source": "Merged Port Operation port call",
        "confidence_score": 66,
        "opportunity_score": 5,
        "risk_score": 45,
        "contact_readiness_score": 35,
        "priority_label": "monitor",
        "reason_summary": "Pohang 제5부두 58선석(TOC)에서 현재 항만 체류 중인 excluded_small_craft으로, 출항도선 신호가 강하지 않습니다 · 연락 경로 단서가 있습니다.",
        "recommended_action": "운영선사 확인",
        "data_sources": [
          "Merged Port Operation port call",
          "merged_port_operation",
          "real_public_api_snapshot",
          "port_operation",
          "grtg"
        ]
      }
    },
    {
      "vessel_id": "CALL-250037",
      "master_vessel_id": "MASTER-CALLSIGN-250037",
      "port_call_id": "MASTER-PORTCALL-MASTER-CALLSIGN-250037-622-622-2026-008-250037",
      "vessel_name": "강남티-25호",
      "imo": "",
      "mmsi": "",
      "call_sign": "250037",
      "port_code": "622",
      "port_name": "South Gyeongsang",
      "vessel_display": {
        "vessel_name": "강남티-25호",
        "imo": "-",
        "mmsi": "-",
        "call_sign": "250037",
        "flag": "-",
        "vessel_type": "견인용예선",
        "gt": 253,
        "dwt": 0,
        "operator": "-",
        "company": "(주)강남선박",
        "owner": "-",
        "manager": "-",
        "technical_manager": "-",
        "current_port": "South Gyeongsang",
        "eta": "2026-06-03T11:00:00.000Z",
        "etb": "-",
        "ata": "2026-06-02 09:05:00+09:00",
        "atb": "-",
        "stay_days": 0.2,
        "last_seen_at": "2026-06-04T04:45:37.528Z",
        "data_source": "Merged Port Operation port call",
        "confidence_score": 66,
        "opportunity_score": 5,
        "risk_score": 45,
        "contact_readiness_score": 35,
        "priority_label": "monitor",
        "reason_summary": "South Gyeongsang 컨테이너부두3단계2차 7K선석에서 현재 항만 체류 중인 excluded_small_craft으로, 출항도선 신호가 강하지 않습니다 · 연락 경로 단서가 있습니다.",
        "recommended_action": "운영선사 확인",
        "data_sources": [
          "Merged Port Operation port call",
          "merged_port_operation",
          "real_public_api_snapshot",
          "port_operation",
          "grtg"
        ]
      }
    }
  ]
}