{
  "schema_version": "1.0",
  "generated_at": "2026-06-04T05:21:51.286Z",
  "data_mode": "live",
  "page": 49,
  "page_size": 30,
  "total_count": 1442,
  "total_pages": 49,
  "items": [
    {
      "vessel_id": "CALL-250037",
      "master_vessel_id": "MASTER-CALLSIGN-250037",
      "port_call_id": "MASTER-PORTCALL-MASTER-CALLSIGN-250037-622-622-2026-008-250037",
      "vessel_name": "강남티-25호",
      "imo": "",
      "mmsi": "",
      "call_sign": "250037",
      "port_code": "622",
      "port_name": "South Gyeongsang",
      "vessel_display": {
        "vessel_name": "강남티-25호",
        "imo": "-",
        "mmsi": "-",
        "call_sign": "250037",
        "flag": "-",
        "vessel_type": "견인용예선",
        "gt": 253,
        "dwt": 0,
        "operator": "-",
        "company": "(주)강남선박",
        "owner": "-",
        "manager": "-",
        "technical_manager": "-",
        "current_port": "South Gyeongsang",
        "eta": "2026-06-03T11:00:00.000Z",
        "etb": "-",
        "ata": "2026-06-02 09:05:00+09:00",
        "atb": "-",
        "stay_days": 0.2,
        "last_seen_at": "2026-06-04T05:17:40.419Z",
        "data_source": "Merged Port Operation port call",
        "confidence_score": 66,
        "opportunity_score": 5,
        "risk_score": 45,
        "contact_readiness_score": 35,
        "priority_label": "monitor",
        "reason_summary": "South Gyeongsang 컨테이너부두3단계2차 7K선석에서 현재 항만 체류 중인 excluded_small_craft으로, 출항도선 신호가 강하지 않습니다 · 연락 경로 단서가 있습니다.",
        "recommended_action": "운영선사 확인",
        "data_sources": [
          "Merged Port Operation port call",
          "merged_port_operation",
          "real_public_api_snapshot",
          "port_operation",
          "grtg"
        ]
      }
    },
    {
      "vessel_id": "CALL-100933",
      "master_vessel_id": "MASTER-CALLSIGN-100933",
      "port_call_id": "MASTER-PORTCALL-MASTER-CALLSIGN-100933-622-622-2026-007-100933",
      "vessel_name": "대성101호",
      "imo": "",
      "mmsi": "",
      "call_sign": "100933",
      "port_code": "622",
      "port_name": "South Gyeongsang",
      "vessel_display": {
        "vessel_name": "대성101호",
        "imo": "-",
        "mmsi": "-",
        "call_sign": "100933",
        "flag": "-",
        "vessel_type": "기타 예선",
        "gt": 124,
        "dwt": 0,
        "operator": "-",
        "company": "(주)대성해운",
        "owner": "-",
        "manager": "-",
        "technical_manager": "-",
        "current_port": "South Gyeongsang",
        "eta": "2026-06-03T17:00:00.000Z",
        "etb": "-",
        "ata": "2026-06-03 04:20:00+09:00",
        "atb": "-",
        "stay_days": 0.4,
        "last_seen_at": "2026-06-04T05:17:40.419Z",
        "data_source": "Merged Port Operation port call",
        "confidence_score": 66,
        "opportunity_score": 5,
        "risk_score": 45,
        "contact_readiness_score": 35,
        "priority_label": "monitor",
        "reason_summary": "South Gyeongsang 한화오션에코텍 전용부두에서 현재 항만 체류 중인 excluded_small_craft으로, 출항도선 신호가 강하지 않습니다 · 연락 경로 단서가 있습니다.",
        "recommended_action": "운영선사 확인",
        "data_sources": [
          "Merged Port Operation port call",
          "merged_port_operation",
          "real_public_api_snapshot",
          "port_operation",
          "grtg"
        ]
      }
    }
  ]
}